\babel@toc {russian}{}
\contentsline {chapter}{\numberline {1}Постановка задачи}{2}{chapter.1}%
\contentsline {chapter}{\numberline {2}Теория}{3}{chapter.2}%
\contentsline {chapter}{\numberline {3}Реализация}{4}{chapter.3}%
\contentsline {chapter}{\numberline {4}Обсуждение}{7}{chapter.4}%
\contentsline {chapter}{\numberline {5}Литература}{8}{chapter.5}%
