\relax 
\providecommand\hyper@newdestlabel[2]{}
\@nameuse{bbl@beforestart}
\catcode `"\active 
\providecommand\HyperFirstAtBeginDocument{\AtBeginDocument}
\HyperFirstAtBeginDocument{\ifx\hyper@anchor\@undefined
\global\let\oldcontentsline\contentsline
\gdef\contentsline#1#2#3#4{\oldcontentsline{#1}{#2}{#3}}
\global\let\oldnewlabel\newlabel
\gdef\newlabel#1#2{\newlabelxx{#1}#2}
\gdef\newlabelxx#1#2#3#4#5#6{\oldnewlabel{#1}{{#2}{#3}}}
\AtEndDocument{\ifx\hyper@anchor\@undefined
\let\contentsline\oldcontentsline
\let\newlabel\oldnewlabel
\fi}
\fi}
\global\let\hyper@last\relax 
\gdef\HyperFirstAtBeginDocument#1{#1}
\providecommand\HyField@AuxAddToFields[1]{}
\providecommand\HyField@AuxAddToCoFields[2]{}
\babel@aux{russian}{}
\@writefile{toc}{\contentsline {chapter}{\numberline  {1}Постановка задачи}{2}{chapter.1}\protected@file@percent }
\@writefile{lof}{\runinsectionskip }
\@writefile{lot}{\runinsectionskip }
\@writefile{toc}{\contentsline {chapter}{\numberline  {2}Теория}{3}{chapter.2}\protected@file@percent }
\@writefile{lof}{\runinsectionskip }
\@writefile{lot}{\runinsectionskip }
\@writefile{toc}{\contentsline {chapter}{\numberline  {3}Реализация}{4}{chapter.3}\protected@file@percent }
\@writefile{lof}{\runinsectionskip }
\@writefile{lot}{\runinsectionskip }
\@writefile{lof}{\contentsline {figure}{\numberline  {3.1}Обработка грубой погрешности, стандартное нормальное рапспределение, n = 10, 20, 30}{4}{figure.3.1}\protected@file@percent }
\@writefile{lof}{\contentsline {figure}{\numberline  {3.2}Обработка грубой погрешности, стандартное нормальное рапспределение, n = 10, 20, 30}{5}{figure.3.2}\protected@file@percent }
\@writefile{lof}{\contentsline {figure}{\numberline  {3.3}Обработка грубой погрешности, стандартное нормальное рапспределение, n = 10, 20, 30}{5}{figure.3.3}\protected@file@percent }
\@writefile{lof}{\contentsline {figure}{\numberline  {3.4}Обработка грубой погрешности, равномерное распределение, n = 10, 20, 30}{5}{figure.3.4}\protected@file@percent }
\@writefile{lof}{\contentsline {figure}{\numberline  {3.5}Обработка грубой погрешности, распределение Лапласа, n = 10, 20, 30}{6}{figure.3.5}\protected@file@percent }
\@writefile{toc}{\contentsline {chapter}{\numberline  {4}Обсуждение}{7}{chapter.4}\protected@file@percent }
\@writefile{lof}{\runinsectionskip }
\@writefile{lot}{\runinsectionskip }
\@writefile{toc}{\contentsline {chapter}{\numberline  {5}Литература}{8}{chapter.5}\protected@file@percent }
\@writefile{lof}{\runinsectionskip }
\@writefile{lot}{\runinsectionskip }
