# Fdb version 3
["pdflatex"] 1590846154 "c:/Users/topdo/OneDrive/repos/lab1/lab8_report/main.tex" "c:/Users/topdo/OneDrive/repos/lab1/lab8_report/main.pdf" "main" 1590846155
  "C:/Program Files/MiKTeX 2.9/fonts/tfm/jknappen/ec/tcrm1440.tfm" 993062510 1460 05250f74aea2bdcfe9d6766811b8b7b2 ""
  "C:/Program Files/MiKTeX 2.9/fonts/tfm/public/amsfonts/cmextra/cmex7.tfm" 1233951848 1004 54797486969f23fa377b128694d548df ""
  "C:/Program Files/MiKTeX 2.9/fonts/tfm/public/amsfonts/cmextra/cmex8.tfm" 1233951848 988 bdf658c3bfc2d96d3c8b02cfc1c94c20 ""
  "C:/Program Files/MiKTeX 2.9/fonts/tfm/public/amsfonts/symbols/msam10.tfm" 1233951854 916 f87d7c45f9c908e672703b83b72241a3 ""
  "C:/Program Files/MiKTeX 2.9/fonts/tfm/public/amsfonts/symbols/msam7.tfm" 1233951854 928 2dc8d444221b7a635bb58038579b861a ""
  "C:/Program Files/MiKTeX 2.9/fonts/tfm/public/amsfonts/symbols/msbm10.tfm" 1233951854 908 2921f8a10601f252058503cc6570e581 ""
  "C:/Program Files/MiKTeX 2.9/fonts/tfm/public/amsfonts/symbols/msbm7.tfm" 1233951854 940 228d6584342e91276bf566bcf9716b83 ""
  "C:/Program Files/MiKTeX 2.9/fonts/tfm/public/cm/cmex10.tfm" 1136765053 992 662f679a0b3d2d53c1b94050fdaa3f50 ""
  "C:/Program Files/MiKTeX 2.9/fonts/tfm/public/cm/cmmi12.tfm" 1136765053 1524 4414a8315f39513458b80dfc63bff03a ""
  "C:/Program Files/MiKTeX 2.9/fonts/tfm/public/cm/cmmi6.tfm" 1136765053 1512 f21f83efb36853c0b70002322c1ab3ad ""
  "C:/Program Files/MiKTeX 2.9/fonts/tfm/public/cm/cmmi8.tfm" 1136765053 1520 eccf95517727cb11801f4f1aee3a21b4 ""
  "C:/Program Files/MiKTeX 2.9/fonts/tfm/public/cm/cmr12.tfm" 1136765053 1288 655e228510b4c2a1abe905c368440826 ""
  "C:/Program Files/MiKTeX 2.9/fonts/tfm/public/cm/cmr6.tfm" 1136765053 1300 b62933e007d01cfd073f79b963c01526 ""
  "C:/Program Files/MiKTeX 2.9/fonts/tfm/public/cm/cmr8.tfm" 1136765053 1292 21c1c5bfeaebccffdb478fd231a0997d ""
  "C:/Program Files/MiKTeX 2.9/fonts/tfm/public/cm/cmsy10.tfm" 1136765053 1124 6c73e740cf17375f03eec0ee63599741 ""
  "C:/Program Files/MiKTeX 2.9/fonts/tfm/public/cm/cmsy6.tfm" 1136765053 1116 933a60c408fc0a863a92debe84b2d294 ""
  "C:/Program Files/MiKTeX 2.9/fonts/tfm/public/cm/cmsy8.tfm" 1136765053 1120 8b7d695260f3cff42e636090a8002094 ""
  "C:/Program Files/MiKTeX 2.9/fonts/tfm/public/cm/cmti12.tfm" 1136765053 1484 ed72f8f5cf654cda15ecc8e32bfcbee5 ""
  "C:/Program Files/MiKTeX 2.9/fonts/type1/public/amsfonts/cm/cmex10.pfb" 1247596667 30251 6afa5cb1d0204815a708a080681d4674 ""
  "C:/Program Files/MiKTeX 2.9/fonts/type1/public/amsfonts/cm/cmmi10.pfb" 1247596667 36299 5f9df58c2139e7edcf37c8fca4bd384d ""
  "C:/Program Files/MiKTeX 2.9/fonts/type1/public/amsfonts/cm/cmmi12.pfb" 1247596667 36741 0ee9e374ec3e30da87cdfb0ea3575226 ""
  "C:/Program Files/MiKTeX 2.9/fonts/type1/public/amsfonts/cm/cmmi7.pfb" 1247596667 36281 c355509802a035cadc5f15869451dcee ""
  "C:/Program Files/MiKTeX 2.9/fonts/type1/public/amsfonts/cm/cmr10.pfb" 1247596667 35752 024fb6c41858982481f6968b5fc26508 ""
  "C:/Program Files/MiKTeX 2.9/fonts/type1/public/amsfonts/cm/cmr12.pfb" 1247596667 32722 d7379af29a190c3f453aba36302ff5a9 ""
  "C:/Program Files/MiKTeX 2.9/fonts/type1/public/amsfonts/cm/cmr7.pfb" 1247596667 32762 7fee39e011c23b3589931effd97b9702 ""
  "C:/Program Files/MiKTeX 2.9/fonts/type1/public/amsfonts/cm/cmsy10.pfb" 1247596667 32569 5e5ddc8df908dea60932f3c484a54c0d ""
  "C:/Program Files/MiKTeX 2.9/tex/context/base/mkii/supp-pdf.mkii" 1580390158 71627 94eb9990bed73c364d7f53f960cc8c5b ""
  "C:/Program Files/MiKTeX 2.9/tex/generic/babel/babel.def" 1589384701 107158 a58f7a1696ebeb13376aa0f8720600d4 ""
  "C:/Program Files/MiKTeX 2.9/tex/generic/babel/babel.sty" 1589384701 35343 180ff3fc8cf1d846a7f48b26f8aa7c17 ""
  "C:/Program Files/MiKTeX 2.9/tex/generic/babel/txtbabel.def" 1589384701 5211 2c3605e674ad86cdc9fdcfcd3de3a1da ""
  "C:/Program Files/MiKTeX 2.9/tex/generic/iftex/iftex.sty" 1583523400 6501 4011d89d9621e0b0901138815ba5ff29 ""
  "C:/Program Files/MiKTeX 2.9/tex/generic/iftex/ifvtex.sty" 1583523400 1057 525c2192b5febbd8c1f662c9468335bb ""
  "C:/Program Files/MiKTeX 2.9/tex/latex/amsfonts/amsfonts.sty" 1358197772 5949 3f3fd50a8cc94c3d4cbf4fc66cd3df1c ""
  "C:/Program Files/MiKTeX 2.9/tex/latex/amsfonts/umsa.fd" 1358197772 961 6518c6525a34feb5e8250ffa91731cff ""
  "C:/Program Files/MiKTeX 2.9/tex/latex/amsfonts/umsb.fd" 1358197772 961 d02606146ba5601b5645f987c92e6193 ""
  "C:/Program Files/MiKTeX 2.9/tex/latex/amsmath/amsbsy.sty" 1580746575 2283 ca7ce284ab93c8eecdc6029dc5ccbd73 ""
  "C:/Program Files/MiKTeX 2.9/tex/latex/amsmath/amsgen.sty" 1580746577 4297 7f6eb9092061a11f87d08ed13515b48d ""
  "C:/Program Files/MiKTeX 2.9/tex/latex/amsmath/amsmath.sty" 1580746578 88523 baee036978c7a91f4e2bba43f05e5945 ""
  "C:/Program Files/MiKTeX 2.9/tex/latex/amsmath/amsopn.sty" 1580746579 4233 32e6abd27229755a83a8b7f18e583890 ""
  "C:/Program Files/MiKTeX 2.9/tex/latex/amsmath/amstext.sty" 1580746580 2508 8ff93b1137020e8f21930562a874ae66 ""
  "C:/Program Files/MiKTeX 2.9/tex/latex/arabi/bblopts.cfg" 1139961600 902 c30e5c373bc58bde21f8f63a3091626f ""
  "C:/Program Files/MiKTeX 2.9/tex/latex/babel-english/english.ldf" 1496846498 7219 9ff5fdcc865b01beca2b0fe4a46231d4 ""
  "C:/Program Files/MiKTeX 2.9/tex/latex/base/fontenc.sty" 1582871666 4947 0c2888dd88121ae675fc6e82213623ba ""
  "C:/Program Files/MiKTeX 2.9/tex/latex/base/inputenc.sty" 1582871666 5050 8933a39ad74377accd18991c5eb90c58 ""
  "C:/Program Files/MiKTeX 2.9/tex/latex/base/makeidx.sty" 1582871666 1940 dd4f2aa11c89855a3c47d09758782ba5 ""
  "C:/Program Files/MiKTeX 2.9/tex/latex/base/t2aenc.dfu" 1582871666 9891 9d0875feb07a471658e4b3eeb906125d ""
  "C:/Program Files/MiKTeX 2.9/tex/latex/epstopdf-pkg/epstopdf-base.sty" 1580041542 14411 d1306dcf79a944f6988e688c1785f9ce ""
  "C:/Program Files/MiKTeX 2.9/tex/latex/graphics-cfg/color.cfg" 1465894292 1213 620bba36b25224fa9b7e1ccb4ecb76fd ""
  "C:/Program Files/MiKTeX 2.9/tex/latex/graphics-cfg/graphics.cfg" 1465894292 1224 978390e9c2234eab29404bc21b268d1e ""
  "C:/Program Files/MiKTeX 2.9/tex/latex/graphics-def/pdftex.def" 1515448300 17334 520b9b85ad8a2a48eda3f643e27a5179 ""
  "C:/Program Files/MiKTeX 2.9/tex/latex/graphics/dvipsnam.def" 1580746541 5034 1ddc361527c0bcf3d7b9f9b0c3c28113 ""
  "C:/Program Files/MiKTeX 2.9/tex/latex/graphics/graphics.sty" 1580746542 17508 04729abe63b66ec59ea56edcd722b058 ""
  "C:/Program Files/MiKTeX 2.9/tex/latex/graphics/graphicx.sty" 1580746542 9343 1b996612394a52e1efe89c8bfe8a5892 ""
  "C:/Program Files/MiKTeX 2.9/tex/latex/graphics/keyval.sty" 1580746542 2677 e3b24ff953e5b58d924f163d25380312 ""
  "C:/Program Files/MiKTeX 2.9/tex/latex/graphics/trig.sty" 1580746542 4093 d7fa7d81d2870d509d25b17d0245e735 ""
  "C:/Program Files/MiKTeX 2.9/tex/latex/hyperref/hpdftex.def" 1589582936 50570 2e81797743231d9037b0cbe3436d74ba ""
  "C:/Program Files/MiKTeX 2.9/tex/latex/hyperref/hyperref.sty" 1589582936 236775 8ab18a05f69e6caef423fa59cb0af03b ""
  "C:/Program Files/MiKTeX 2.9/tex/latex/hyperref/nameref.sty" 1589582936 13244 0070bcab7b5a88187847128d22faf4d8 ""
  "C:/Program Files/MiKTeX 2.9/tex/latex/hyperref/pd1enc.def" 1589582938 14134 c11767c54bd7ecab56984ee4e4e3158c ""
  "C:/Program Files/MiKTeX 2.9/tex/latex/hyperref/puenc.def" 1589582938 122447 8dcff5c67ff7f0649f41dc4abc99887f ""
  "C:/Program Files/MiKTeX 2.9/tex/latex/l3backend/l3backend-pdfmode.def" 1588833310 25681 ff44b84000da696ec5fec7018b319c95 ""
  "C:/Program Files/MiKTeX 2.9/tex/latex/listings/listings.cfg" 1585220135 1879 e31effa752c61538383451ae21332364 ""
  "C:/Program Files/MiKTeX 2.9/tex/latex/listings/listings.sty" 1585220135 83225 64e57373f36316e4a09b517cbf1aba2e ""
  "C:/Program Files/MiKTeX 2.9/tex/latex/listings/lstmisc.sty" 1585220135 79106 ee25ce086f4a79d8cf73bac6f94c02a5 ""
  "C:/Program Files/MiKTeX 2.9/tex/latex/pdftexcmds/pdftexcmds.sty" 1574597624 19963 36fd8e818f9f0f32e2db8413d4970122 ""
  "C:/Program Files/MiKTeX 2.9/tex/latex/tools/indentfirst.sty" 1580644886 1619 d4cd7231755dd1dfa89af8ceddfb0e4d ""
  "C:/Program Files/MiKTeX 2.9/tex/latex/url/url.sty" 1388490452 12796 8edb7d69a20b857904dd0ea757c14ec9 ""
  "C:/Program Files/MiKTeX 2.9/tex/latex/xcolor/xcolor.sty" 1463135581 57049 34128738f682d033422ca125f82e5d62 ""
  "C:/Users/topdo/AppData/Local/MiKTeX/2.9/fonts/pk/ljfour/jknappen/ec/dpi600/tcrm1440.pk" 1590517018 16968 03525bdfa167decc21d30247a0950e85 ""
  "C:/Users/topdo/AppData/Local/MiKTeX/2.9/fonts/pk/ljfour/lh/lh-t2a/dpi600/labx1200.pk" 1590517026 29472 d03de442c9f98be176a2aefaa6f947a5 ""
  "C:/Users/topdo/AppData/Local/MiKTeX/2.9/fonts/pk/ljfour/lh/lh-t2a/dpi600/labx1440.pk" 1590517027 36852 9eed106ce530418df20ada7d40386f68 ""
  "C:/Users/topdo/AppData/Local/MiKTeX/2.9/fonts/pk/ljfour/lh/lh-t2a/dpi600/labx1728.pk" 1590517031 45168 54ded7f54225465ed8a837700ec82b53 ""
  "C:/Users/topdo/AppData/Local/MiKTeX/2.9/fonts/pk/ljfour/lh/lh-t2a/dpi600/labx2488.pk" 1590517029 66304 998b254ab90266a345b4ef74ed5dc1ef ""
  "C:/Users/topdo/AppData/Local/MiKTeX/2.9/fonts/pk/ljfour/lh/lh-t2a/dpi600/lacc1440.pk" 1590517032 35268 d452b741931e54598bfb6dde748f5cca ""
  "C:/Users/topdo/AppData/Local/MiKTeX/2.9/fonts/pk/ljfour/lh/lh-t2a/dpi600/larm1200.pk" 1590517025 27028 cb2709af5e0841c75780b1eb494c5658 ""
  "C:/Users/topdo/AppData/Local/MiKTeX/2.9/fonts/pk/ljfour/lh/lh-t2a/dpi600/larm1440.pk" 1590517030 32600 e404ae26a364033c8caf6a215fbf2d02 ""
  "C:/Users/topdo/AppData/Local/MiKTeX/2.9/fonts/pk/ljfour/lh/lh-t2a/dpi600/lati1200.pk" 1590517024 38684 8bf6330a269d64e9c38a6fd9716d5f93 ""
  "C:/Users/topdo/AppData/Local/MiKTeX/2.9/fonts/tfm/lh/lh-t2a/labx1200.tfm" 1590517010 3308 eee81981029f67083258db36df06e523 ""
  "C:/Users/topdo/AppData/Local/MiKTeX/2.9/fonts/tfm/lh/lh-t2a/labx1440.tfm" 1590517003 3304 6a543c07045572737981351171e0505e ""
  "C:/Users/topdo/AppData/Local/MiKTeX/2.9/fonts/tfm/lh/lh-t2a/labx1728.tfm" 1590517004 3312 d199be9bd555944e2403193d58a0256a ""
  "C:/Users/topdo/AppData/Local/MiKTeX/2.9/fonts/tfm/lh/lh-t2a/labx2488.tfm" 1590517006 3304 10c1a71cb294f8a8339c46823bcc15f2 ""
  "C:/Users/topdo/AppData/Local/MiKTeX/2.9/fonts/tfm/lh/lh-t2a/lacc1440.tfm" 1590517002 3168 52acd69369650fc3677a77795df7d5f5 ""
  "C:/Users/topdo/AppData/Local/MiKTeX/2.9/fonts/tfm/lh/lh-t2a/larm1200.tfm" 1590517009 3240 c2435f2b5cd66d4930bc29b8df87967e ""
  "C:/Users/topdo/AppData/Local/MiKTeX/2.9/fonts/tfm/lh/lh-t2a/larm1440.tfm" 1590516871 3256 3daaa33cf35cf3f354983aa3214ecd7f ""
  "C:/Users/topdo/AppData/Local/MiKTeX/2.9/fonts/tfm/lh/lh-t2a/larm1728.tfm" 1590517007 3252 3140686608bdcae603a09a7973fb9e55 ""
  "C:/Users/topdo/AppData/Local/MiKTeX/2.9/fonts/tfm/lh/lh-t2a/larm2488.tfm" 1590517005 3264 8aa2086ebecf1132c0ba370957182f17 ""
  "C:/Users/topdo/AppData/Local/MiKTeX/2.9/fonts/tfm/lh/lh-t2a/lati1200.tfm" 1590517011 3512 f3a56cfe95a159371df20f73d1eb107d ""
  "C:/Users/topdo/AppData/Local/MiKTeX/2.9/miktex/data/le/pdftex/pdflatex.fmt" 1590516826 10010661 33aa49ccefe2b4824c14eee3f0717dd8 ""
  "C:/Users/topdo/AppData/Local/MiKTeX/2.9/pdftex/config/pdftex.map" 1590517000 80909 eab91d9745dd2edfd62a31d53cd5fe15 ""
  "C:/Users/topdo/AppData/Roaming/MiKTeX/2.9/tex/generic/atbegshi/atbegshi.sty" 1575571100 24708 5584a51a7101caf7e6bbf1fc27d8f7b1 ""
  "C:/Users/topdo/AppData/Roaming/MiKTeX/2.9/tex/generic/bigintcalc/bigintcalc.sty" 1576433602 40635 c40361e206be584d448876bba8a64a3b ""
  "C:/Users/topdo/AppData/Roaming/MiKTeX/2.9/tex/generic/bitset/bitset.sty" 1575926576 33961 6b5c75130e435b2bfdb9f480a09a39f9 ""
  "C:/Users/topdo/AppData/Roaming/MiKTeX/2.9/tex/generic/etexcmds/etexcmds.sty" 1576433638 7734 b98cbb34c81f667027c1e3ebdbfce34b ""
  "C:/Users/topdo/AppData/Roaming/MiKTeX/2.9/tex/generic/gettitlestring/gettitlestring.sty" 1576433666 8371 9d55b8bd010bc717624922fb3477d92e ""
  "C:/Users/topdo/AppData/Roaming/MiKTeX/2.9/tex/generic/infwarerr/infwarerr.sty" 1575399508 8356 7bbb2c2373aa810be568c29e333da8ed ""
  "C:/Users/topdo/AppData/Roaming/MiKTeX/2.9/tex/generic/intcalc/intcalc.sty" 1576433764 31769 002a487f55041f8e805cfbf6385ffd97 ""
  "C:/Users/topdo/AppData/Roaming/MiKTeX/2.9/tex/generic/kvdefinekeys/kvdefinekeys.sty" 1576763304 5412 d5a2436094cd7be85769db90f29250a6 ""
  "C:/Users/topdo/AppData/Roaming/MiKTeX/2.9/tex/generic/kvsetkeys/kvsetkeys.sty" 1576433820 13807 952b0226d4efca026f0e19dd266dcc22 ""
  "C:/Users/topdo/AppData/Roaming/MiKTeX/2.9/tex/generic/ltxcmds/ltxcmds.sty" 1576433900 18552 1e1cc7b75da0dfaacce7cdcb27d306bf ""
  "C:/Users/topdo/AppData/Roaming/MiKTeX/2.9/tex/generic/pdfescape/pdfescape.sty" 1575926700 19007 15924f7228aca6c6d184b115f4baa231 ""
  "C:/Users/topdo/AppData/Roaming/MiKTeX/2.9/tex/generic/uniquecounter/uniquecounter.sty" 1576434012 7008 f92eaa0a3872ed622bbf538217cd2ab7 ""
  "C:/Users/topdo/AppData/Roaming/MiKTeX/2.9/tex/latex/atveryend/atveryend.sty" 1576101110 19336 ce7ae9438967282886b3b036cfad1e4d ""
  "C:/Users/topdo/AppData/Roaming/MiKTeX/2.9/tex/latex/auxhook/auxhook.sty" 1576538732 3935 57aa3c3e203a5c2effb4d2bd2efbc323 ""
  "C:/Users/topdo/AppData/Roaming/MiKTeX/2.9/tex/latex/babel-russian/russianb.ldf" 1502527609 26775 c8ae0c5e664e3887bd445441d24e5ab6 ""
  "C:/Users/topdo/AppData/Roaming/MiKTeX/2.9/tex/latex/cyrillic/t2acmr.fd" 1523116589 2629 d9552c7bbba7c739be0e3edc79b79dbb ""
  "C:/Users/topdo/AppData/Roaming/MiKTeX/2.9/tex/latex/cyrillic/t2aenc.def" 1523116589 12288 0675a914f4ef655c59b5d82e90103345 ""
  "C:/Users/topdo/AppData/Roaming/MiKTeX/2.9/tex/latex/float/float.sty" 1469023953 6916 16d2656a1984957e674b149555f1ea1d ""
  "C:/Users/topdo/AppData/Roaming/MiKTeX/2.9/tex/latex/geometry/geometry.cfg" 1578053545 1104 7ac475a4e3466b0b43e138e9356bda83 ""
  "C:/Users/topdo/AppData/Roaming/MiKTeX/2.9/tex/latex/geometry/geometry.sty" 1578053545 42759 9cf6c5257b1bc7af01a58859749dd37a ""
  "C:/Users/topdo/AppData/Roaming/MiKTeX/2.9/tex/latex/hycolor/hycolor.sty" 1580380792 18571 4c28a13fc3d975e6e81c9bea1d697276 ""
  "C:/Users/topdo/AppData/Roaming/MiKTeX/2.9/tex/latex/kvoptions/kvoptions.sty" 1575059482 22520 c4c2dab203104295e1e618be7e5c0f5b ""
  "C:/Users/topdo/AppData/Roaming/MiKTeX/2.9/tex/latex/letltxmacro/letltxmacro.sty" 1575399536 5766 13a9e8766c47f30327caf893ece86ac8 ""
  "C:/Users/topdo/AppData/Roaming/MiKTeX/2.9/tex/latex/ncclatex/ncc.cls" 1137548520 14534 1844d5bff605f2174ecb1cef3807af58 ""
  "C:/Users/topdo/AppData/Roaming/MiKTeX/2.9/tex/latex/ncclatex/ncc14.clo" 1012168800 3307 ce363724783ff6894b1c5fb7439f71be ""
  "C:/Users/topdo/AppData/Roaming/MiKTeX/2.9/tex/latex/ncclatex/nccbiblist.sty" 1135438140 1562 028aa8be08352abedfc66b3302a58def ""
  "C:/Users/topdo/AppData/Roaming/MiKTeX/2.9/tex/latex/ncclatex/nccbook.clo" 1135864920 1325 f0def2cdb32f61ed295589ea4033e392 ""
  "C:/Users/topdo/AppData/Roaming/MiKTeX/2.9/tex/latex/ncclatex/nccdefaults.sty" 1137548940 3934 a1320ecd8d16519c7766cadf01e37153 ""
  "C:/Users/topdo/AppData/Roaming/MiKTeX/2.9/tex/latex/ncclatex/nccheadings.sty" 1135776480 2020 a320dfbfe8e185b49cfc0f7b8fdb70c8 ""
  "C:/Users/topdo/AppData/Roaming/MiKTeX/2.9/tex/latex/ncclatex/ncclatex.sty" 1137548640 5435 aa98913a392d7c1e34cb0d323c47ba3d ""
  "C:/Users/topdo/AppData/Roaming/MiKTeX/2.9/tex/latex/ncclatex/nccold.sty" 1014156000 1289 60131e37a1e4ab08464c2bb73b54b48b ""
  "C:/Users/topdo/AppData/Roaming/MiKTeX/2.9/tex/latex/ncclatex/ncctheorems.sty" 1137548820 2959 83f0d704170e2089e83862bc3fc68aad ""
  "C:/Users/topdo/AppData/Roaming/MiKTeX/2.9/tex/latex/ncclatex/ncctitle.sty" 1135643880 6827 7222feb4b07b0a3775474db1d62207b6 ""
  "C:/Users/topdo/AppData/Roaming/MiKTeX/2.9/tex/latex/ncclatex/ncctitlepage.sty" 1135641540 1338 e07b0ae0d3b4601144175ebc40c063cc ""
  "C:/Users/topdo/AppData/Roaming/MiKTeX/2.9/tex/latex/ncctools/afterpackage.sty" 1565017809 1879 aaaf173937741a15d062985b54055590 ""
  "C:/Users/topdo/AppData/Roaming/MiKTeX/2.9/tex/latex/ncctools/dcounter.sty" 1565017809 3893 7eb5156a3c2e3283d5e64e12ddf64b97 ""
  "C:/Users/topdo/AppData/Roaming/MiKTeX/2.9/tex/latex/ncctools/desclist.sty" 1565017809 1390 454abec13eb4c29638f5d7d6a40010b4 ""
  "C:/Users/topdo/AppData/Roaming/MiKTeX/2.9/tex/latex/ncctools/extdash.sty" 1565017809 3343 939938e61561c54f4ec03d93c62f415c ""
  "C:/Users/topdo/AppData/Roaming/MiKTeX/2.9/tex/latex/ncctools/nccboxes.sty" 1565017809 4726 b0dec053c7e0a69312d7fd47367ca7ca ""
  "C:/Users/topdo/AppData/Roaming/MiKTeX/2.9/tex/latex/ncctools/nccfloats.sty" 1565017809 5729 fea0186823900c89361c64ff191a4fab ""
  "C:/Users/topdo/AppData/Roaming/MiKTeX/2.9/tex/latex/ncctools/nccfoots.sty" 1565017809 1230 756b2502150ce6dc2179faebbd40e701 ""
  "C:/Users/topdo/AppData/Roaming/MiKTeX/2.9/tex/latex/ncctools/nccmath.sty" 1565017809 15059 b9ec0dfe305551751c94c3d416a3bea2 ""
  "C:/Users/topdo/AppData/Roaming/MiKTeX/2.9/tex/latex/ncctools/nccpic.sty" 1565017809 2425 f8976e4c9b35770397900a636a10e74c ""
  "C:/Users/topdo/AppData/Roaming/MiKTeX/2.9/tex/latex/ncctools/nccsect.sty" 1565017809 30930 0cf88936c95bad9dd5e105f43a74fe84 ""
  "C:/Users/topdo/AppData/Roaming/MiKTeX/2.9/tex/latex/ncctools/nccthm.sty" 1565017809 7346 5a75881e9162664bc54555f255e9030e ""
  "C:/Users/topdo/AppData/Roaming/MiKTeX/2.9/tex/latex/ncctools/textarea.sty" 1565017809 3366 a4bf4125bc928e22aece80f9f53a7164 ""
  "C:/Users/topdo/AppData/Roaming/MiKTeX/2.9/tex/latex/ncctools/tocenter.sty" 1565017809 3528 2d7cbc09862aa7a8a8cb6ab5cd606ba5 ""
  "C:/Users/topdo/AppData/Roaming/MiKTeX/2.9/tex/latex/ncctools/topsection.sty" 1565017809 1591 a3f6fb59e9b3170de40ca5d065aa90c5 ""
  "C:/Users/topdo/AppData/Roaming/MiKTeX/2.9/tex/latex/ncctools/watermark.sty" 1565017809 2157 629feea530353e1d838a4fa0d252a369 ""
  "C:/Users/topdo/AppData/Roaming/MiKTeX/2.9/tex/latex/refcount/refcount.sty" 1576433952 9878 9e94e8fa600d95f9c7731bb21dfb67a4 ""
  "C:/Users/topdo/AppData/Roaming/MiKTeX/2.9/tex/latex/rerunfilecheck/rerunfilecheck.sty" 1575571282 9715 b051d5b493d9fe5f4bc251462d039e5f ""
  "c:/Users/topdo/OneDrive/repos/lab1/lab8_report/main.aux" 1590846155 2185 daefdc8aa3cccaedeaec8a1b2b157102 ""
  "c:/Users/topdo/OneDrive/repos/lab1/lab8_report/main.tex" 1590840754 2348 85e9f42136bbff9891195d30af48ac5f ""
  "implementation.tex" 1590846152 1426 8357832e5798a37d4ee74acd6787b65b ""
  "literature.tex" 1590844514 391 2bb3a537bc262a1c90899e51ab2e7239 ""
  "main.aux" 1590846155 2185 daefdc8aa3cccaedeaec8a1b2b157102 "pdflatex"
  "main.out" 1590846155 773 f905b6b78fec0bd39481790e78018481 "pdflatex"
  "main.tex" 1590840754 2348 85e9f42136bbff9891195d30af48ac5f ""
  "main.toc" 1590846155 488 4fc8a26a553cf3f3b69b8ebca1631ae4 "pdflatex"
  "result.tex" 1590844435 488 b5b93d52976e972f46852138e713c603 ""
  "task.tex" 1590840836 742 fa45971f5b689aee7cb517f5a18c7202 ""
  "theory.tex" 1590843556 2967 1a3b07d05438ed150feafe4a044db082 ""
  (generated)
  "main.log"
  "main.aux"
  "main.out"
  "c:/Users/topdo/OneDrive/repos/lab1/lab8_report/main.pdf"
  "main.toc"
  "main.pdf"
  "c:/Users/topdo/OneDrive/repos/lab1/lab8_report/main.log"
