PWD c:\Users\topdo\OneDrive\repos\lab1\lab8_report
INPUT C:\Users\topdo\AppData\Local\MiKTeX\2.9\miktex\data\le\pdftex\pdflatex.fmt
INPUT c:\Users\topdo\OneDrive\repos\lab1\lab8_report\main.tex
OUTPUT c:\Users\topdo\OneDrive\repos\lab1\lab8_report\main.log
INPUT C:\Users\topdo\AppData\Roaming\MiKTeX\2.9\tex\latex\ncclatex\ncc.cls
INPUT C:\Users\topdo\AppData\Roaming\MiKTeX\2.9\tex\latex\ncclatex\ncc.cls
INPUT C:\Users\topdo\AppData\Roaming\MiKTeX\2.9\tex\latex\ncclatex\ncc14.clo
INPUT C:\Users\topdo\AppData\Roaming\MiKTeX\2.9\tex\latex\ncclatex\ncc14.clo
INPUT C:\Program Files\MiKTeX 2.9\fonts\tfm\public\cm\cmr12.tfm
INPUT C:\Users\topdo\AppData\Roaming\MiKTeX\2.9\tex\latex\ncctools\tocenter.sty
INPUT C:\Users\topdo\AppData\Roaming\MiKTeX\2.9\tex\latex\ncctools\tocenter.sty
INPUT C:\Users\topdo\AppData\Roaming\MiKTeX\2.9\tex\latex\ncctools\dcounter.sty
INPUT C:\Users\topdo\AppData\Roaming\MiKTeX\2.9\tex\latex\ncctools\dcounter.sty
INPUT C:\Program Files\MiKTeX 2.9\tex\latex\base\makeidx.sty
INPUT C:\Program Files\MiKTeX 2.9\tex\latex\base\makeidx.sty
INPUT C:\Users\topdo\AppData\Roaming\MiKTeX\2.9\tex\latex\ncclatex\ncclatex.sty
INPUT C:\Users\topdo\AppData\Roaming\MiKTeX\2.9\tex\latex\ncclatex\ncclatex.sty
INPUT C:\Users\topdo\AppData\Roaming\MiKTeX\2.9\tex\latex\ncclatex\nccdefaults.sty
INPUT C:\Users\topdo\AppData\Roaming\MiKTeX\2.9\tex\latex\ncclatex\nccdefaults.sty
INPUT C:\Users\topdo\AppData\Roaming\MiKTeX\2.9\tex\latex\ncctools\afterpackage.sty
INPUT C:\Users\topdo\AppData\Roaming\MiKTeX\2.9\tex\latex\ncctools\afterpackage.sty
INPUT C:\Users\topdo\AppData\Roaming\MiKTeX\2.9\tex\latex\ncctools\desclist.sty
INPUT C:\Users\topdo\AppData\Roaming\MiKTeX\2.9\tex\latex\ncctools\desclist.sty
INPUT C:\Users\topdo\AppData\Roaming\MiKTeX\2.9\tex\latex\ncctools\extdash.sty
INPUT C:\Users\topdo\AppData\Roaming\MiKTeX\2.9\tex\latex\ncctools\extdash.sty
INPUT C:\Users\topdo\AppData\Roaming\MiKTeX\2.9\tex\latex\ncctools\nccmath.sty
INPUT C:\Users\topdo\AppData\Roaming\MiKTeX\2.9\tex\latex\ncctools\nccmath.sty
INPUT C:\Program Files\MiKTeX 2.9\tex\latex\amsmath\amsmath.sty
INPUT C:\Program Files\MiKTeX 2.9\tex\latex\amsmath\amsmath.sty
INPUT C:\Program Files\MiKTeX 2.9\tex\latex\amsmath\amstext.sty
INPUT C:\Program Files\MiKTeX 2.9\tex\latex\amsmath\amstext.sty
INPUT C:\Program Files\MiKTeX 2.9\tex\latex\amsmath\amsgen.sty
INPUT C:\Program Files\MiKTeX 2.9\tex\latex\amsmath\amsgen.sty
INPUT C:\Program Files\MiKTeX 2.9\tex\latex\amsmath\amsbsy.sty
INPUT C:\Program Files\MiKTeX 2.9\tex\latex\amsmath\amsbsy.sty
INPUT C:\Program Files\MiKTeX 2.9\tex\latex\amsmath\amsopn.sty
INPUT C:\Program Files\MiKTeX 2.9\tex\latex\amsmath\amsopn.sty
INPUT C:\Users\topdo\AppData\Roaming\MiKTeX\2.9\tex\latex\ncctools\nccsect.sty
INPUT C:\Users\topdo\AppData\Roaming\MiKTeX\2.9\tex\latex\ncctools\nccsect.sty
INPUT C:\Users\topdo\AppData\Roaming\MiKTeX\2.9\tex\latex\ncctools\watermark.sty
INPUT C:\Users\topdo\AppData\Roaming\MiKTeX\2.9\tex\latex\ncctools\watermark.sty
INPUT C:\Users\topdo\AppData\Roaming\MiKTeX\2.9\tex\latex\ncclatex\ncctheorems.sty
INPUT C:\Users\topdo\AppData\Roaming\MiKTeX\2.9\tex\latex\ncclatex\ncctheorems.sty
INPUT C:\Users\topdo\AppData\Roaming\MiKTeX\2.9\tex\latex\ncctools\nccthm.sty
INPUT C:\Users\topdo\AppData\Roaming\MiKTeX\2.9\tex\latex\ncctools\nccthm.sty
INPUT C:\Users\topdo\AppData\Roaming\MiKTeX\2.9\tex\latex\ncctools\nccboxes.sty
INPUT C:\Users\topdo\AppData\Roaming\MiKTeX\2.9\tex\latex\ncctools\nccboxes.sty
INPUT C:\Users\topdo\AppData\Roaming\MiKTeX\2.9\tex\latex\ncctools\nccfoots.sty
INPUT C:\Users\topdo\AppData\Roaming\MiKTeX\2.9\tex\latex\ncctools\nccfoots.sty
INPUT C:\Users\topdo\AppData\Roaming\MiKTeX\2.9\tex\latex\ncctools\nccpic.sty
INPUT C:\Users\topdo\AppData\Roaming\MiKTeX\2.9\tex\latex\ncctools\nccpic.sty
INPUT C:\Program Files\MiKTeX 2.9\tex\latex\graphics\graphicx.sty
INPUT C:\Program Files\MiKTeX 2.9\tex\latex\graphics\graphicx.sty
INPUT C:\Program Files\MiKTeX 2.9\tex\latex\graphics\keyval.sty
INPUT C:\Program Files\MiKTeX 2.9\tex\latex\graphics\keyval.sty
INPUT C:\Program Files\MiKTeX 2.9\tex\latex\graphics\graphics.sty
INPUT C:\Program Files\MiKTeX 2.9\tex\latex\graphics\graphics.sty
INPUT C:\Program Files\MiKTeX 2.9\tex\latex\graphics\trig.sty
INPUT C:\Program Files\MiKTeX 2.9\tex\latex\graphics\trig.sty
INPUT C:\Program Files\MiKTeX 2.9\tex\latex\graphics-cfg\graphics.cfg
INPUT C:\Program Files\MiKTeX 2.9\tex\latex\graphics-cfg\graphics.cfg
INPUT C:\Program Files\MiKTeX 2.9\tex\latex\graphics-def\pdftex.def
INPUT C:\Program Files\MiKTeX 2.9\tex\latex\graphics-def\pdftex.def
INPUT C:\Users\topdo\AppData\Roaming\MiKTeX\2.9\tex\latex\ncctools\nccfloats.sty
INPUT C:\Users\topdo\AppData\Roaming\MiKTeX\2.9\tex\latex\ncctools\nccfloats.sty
INPUT C:\Users\topdo\AppData\Roaming\MiKTeX\2.9\tex\latex\ncctools\topsection.sty
INPUT C:\Users\topdo\AppData\Roaming\MiKTeX\2.9\tex\latex\ncctools\topsection.sty
INPUT C:\Users\topdo\AppData\Roaming\MiKTeX\2.9\tex\latex\ncclatex\ncctitlepage.sty
INPUT C:\Users\topdo\AppData\Roaming\MiKTeX\2.9\tex\latex\ncclatex\ncctitlepage.sty
INPUT C:\Users\topdo\AppData\Roaming\MiKTeX\2.9\tex\latex\ncctools\textarea.sty
INPUT C:\Users\topdo\AppData\Roaming\MiKTeX\2.9\tex\latex\ncctools\textarea.sty
INPUT C:\Users\topdo\AppData\Roaming\MiKTeX\2.9\tex\latex\ncclatex\nccheadings.sty
INPUT C:\Users\topdo\AppData\Roaming\MiKTeX\2.9\tex\latex\ncclatex\nccheadings.sty
INPUT C:\Users\topdo\AppData\Roaming\MiKTeX\2.9\tex\latex\ncclatex\nccold.sty
INPUT C:\Users\topdo\AppData\Roaming\MiKTeX\2.9\tex\latex\ncclatex\nccold.sty
INPUT C:\Users\topdo\AppData\Roaming\MiKTeX\2.9\tex\latex\ncclatex\nccbiblist.sty
INPUT C:\Users\topdo\AppData\Roaming\MiKTeX\2.9\tex\latex\ncclatex\nccbiblist.sty
INPUT C:\Users\topdo\AppData\Roaming\MiKTeX\2.9\tex\latex\ncclatex\nccbook.clo
INPUT C:\Users\topdo\AppData\Roaming\MiKTeX\2.9\tex\latex\ncclatex\nccbook.clo
INPUT C:\Users\topdo\AppData\Roaming\MiKTeX\2.9\tex\latex\ncclatex\ncctitle.sty
INPUT C:\Users\topdo\AppData\Roaming\MiKTeX\2.9\tex\latex\ncclatex\ncctitle.sty
INPUT C:\Users\topdo\AppData\Roaming\MiKTeX\2.9\tex\latex\geometry\geometry.sty
INPUT C:\Users\topdo\AppData\Roaming\MiKTeX\2.9\tex\latex\geometry\geometry.sty
INPUT C:\Program Files\MiKTeX 2.9\tex\generic\iftex\ifvtex.sty
INPUT C:\Program Files\MiKTeX 2.9\tex\generic\iftex\ifvtex.sty
INPUT C:\Program Files\MiKTeX 2.9\tex\generic\iftex\iftex.sty
INPUT C:\Program Files\MiKTeX 2.9\tex\generic\iftex\iftex.sty
INPUT C:\Users\topdo\AppData\Roaming\MiKTeX\2.9\tex\latex\geometry\geometry.cfg
INPUT C:\Users\topdo\AppData\Roaming\MiKTeX\2.9\tex\latex\geometry\geometry.cfg
INPUT C:\Program Files\MiKTeX 2.9\tex\latex\base\inputenc.sty
INPUT C:\Program Files\MiKTeX 2.9\tex\latex\base\inputenc.sty
INPUT C:\Program Files\MiKTeX 2.9\tex\latex\base\fontenc.sty
INPUT C:\Program Files\MiKTeX 2.9\tex\latex\base\fontenc.sty
INPUT C:\Users\topdo\AppData\Roaming\MiKTeX\2.9\tex\latex\cyrillic\t2aenc.def
INPUT C:\Users\topdo\AppData\Roaming\MiKTeX\2.9\tex\latex\cyrillic\t2aenc.def
INPUT C:\Program Files\MiKTeX 2.9\tex\latex\base\t2aenc.dfu
INPUT C:\Program Files\MiKTeX 2.9\tex\latex\base\t2aenc.dfu
INPUT C:\Users\topdo\AppData\Roaming\MiKTeX\2.9\tex\latex\cyrillic\t2acmr.fd
INPUT C:\Users\topdo\AppData\Roaming\MiKTeX\2.9\tex\latex\cyrillic\t2acmr.fd
INPUT C:\Users\topdo\AppData\Local\MiKTeX\2.9\fonts\tfm\lh\lh-t2a\larm1440.tfm
INPUT C:\Program Files\MiKTeX 2.9\tex\generic\babel\babel.sty
INPUT C:\Program Files\MiKTeX 2.9\tex\generic\babel\babel.sty
INPUT C:\Program Files\MiKTeX 2.9\tex\generic\babel\babel.def
INPUT C:\Program Files\MiKTeX 2.9\tex\generic\babel\txtbabel.def
INPUT C:\Program Files\MiKTeX 2.9\tex\latex\arabi\bblopts.cfg
INPUT C:\Program Files\MiKTeX 2.9\tex\latex\arabi\bblopts.cfg
INPUT C:\Program Files\MiKTeX 2.9\tex\latex\babel-english\english.ldf
INPUT C:\Program Files\MiKTeX 2.9\tex\latex\babel-english\english.ldf
INPUT C:\Users\topdo\AppData\Roaming\MiKTeX\2.9\tex\latex\babel-russian\russianb.ldf
INPUT C:\Users\topdo\AppData\Roaming\MiKTeX\2.9\tex\latex\babel-russian\russianb.ldf
INPUT C:\Program Files\MiKTeX 2.9\tex\latex\tools\indentfirst.sty
INPUT C:\Program Files\MiKTeX 2.9\tex\latex\tools\indentfirst.sty
INPUT C:\Program Files\MiKTeX 2.9\tex\latex\xcolor\xcolor.sty
INPUT C:\Program Files\MiKTeX 2.9\tex\latex\xcolor\xcolor.sty
INPUT C:\Program Files\MiKTeX 2.9\tex\latex\graphics-cfg\color.cfg
INPUT C:\Program Files\MiKTeX 2.9\tex\latex\graphics-cfg\color.cfg
INPUT C:\Program Files\MiKTeX 2.9\tex\latex\graphics\dvipsnam.def
INPUT C:\Program Files\MiKTeX 2.9\tex\latex\graphics\dvipsnam.def
INPUT C:\Program Files\MiKTeX 2.9\tex\latex\hyperref\hyperref.sty
INPUT C:\Program Files\MiKTeX 2.9\tex\latex\hyperref\hyperref.sty
INPUT C:\Users\topdo\AppData\Roaming\MiKTeX\2.9\tex\generic\ltxcmds\ltxcmds.sty
INPUT C:\Users\topdo\AppData\Roaming\MiKTeX\2.9\tex\generic\ltxcmds\ltxcmds.sty
INPUT C:\Program Files\MiKTeX 2.9\tex\latex\pdftexcmds\pdftexcmds.sty
INPUT C:\Program Files\MiKTeX 2.9\tex\latex\pdftexcmds\pdftexcmds.sty
INPUT C:\Users\topdo\AppData\Roaming\MiKTeX\2.9\tex\generic\infwarerr\infwarerr.sty
INPUT C:\Users\topdo\AppData\Roaming\MiKTeX\2.9\tex\generic\infwarerr\infwarerr.sty
INPUT C:\Users\topdo\AppData\Roaming\MiKTeX\2.9\tex\generic\kvsetkeys\kvsetkeys.sty
INPUT C:\Users\topdo\AppData\Roaming\MiKTeX\2.9\tex\generic\kvsetkeys\kvsetkeys.sty
INPUT C:\Users\topdo\AppData\Roaming\MiKTeX\2.9\tex\generic\kvdefinekeys\kvdefinekeys.sty
INPUT C:\Users\topdo\AppData\Roaming\MiKTeX\2.9\tex\generic\kvdefinekeys\kvdefinekeys.sty
INPUT C:\Users\topdo\AppData\Roaming\MiKTeX\2.9\tex\generic\pdfescape\pdfescape.sty
INPUT C:\Users\topdo\AppData\Roaming\MiKTeX\2.9\tex\generic\pdfescape\pdfescape.sty
INPUT C:\Users\topdo\AppData\Roaming\MiKTeX\2.9\tex\latex\hycolor\hycolor.sty
INPUT C:\Users\topdo\AppData\Roaming\MiKTeX\2.9\tex\latex\hycolor\hycolor.sty
INPUT C:\Users\topdo\AppData\Roaming\MiKTeX\2.9\tex\latex\letltxmacro\letltxmacro.sty
INPUT C:\Users\topdo\AppData\Roaming\MiKTeX\2.9\tex\latex\letltxmacro\letltxmacro.sty
INPUT C:\Users\topdo\AppData\Roaming\MiKTeX\2.9\tex\latex\auxhook\auxhook.sty
INPUT C:\Users\topdo\AppData\Roaming\MiKTeX\2.9\tex\latex\auxhook\auxhook.sty
INPUT C:\Users\topdo\AppData\Roaming\MiKTeX\2.9\tex\latex\kvoptions\kvoptions.sty
INPUT C:\Users\topdo\AppData\Roaming\MiKTeX\2.9\tex\latex\kvoptions\kvoptions.sty
INPUT C:\Program Files\MiKTeX 2.9\tex\latex\hyperref\pd1enc.def
INPUT C:\Program Files\MiKTeX 2.9\tex\latex\hyperref\pd1enc.def
INPUT C:\Users\topdo\AppData\Roaming\MiKTeX\2.9\tex\generic\intcalc\intcalc.sty
INPUT C:\Users\topdo\AppData\Roaming\MiKTeX\2.9\tex\generic\intcalc\intcalc.sty
INPUT C:\Users\topdo\AppData\Roaming\MiKTeX\2.9\tex\generic\etexcmds\etexcmds.sty
INPUT C:\Users\topdo\AppData\Roaming\MiKTeX\2.9\tex\generic\etexcmds\etexcmds.sty
INPUT C:\Program Files\MiKTeX 2.9\tex\latex\hyperref\puenc.def
INPUT C:\Program Files\MiKTeX 2.9\tex\latex\hyperref\puenc.def
INPUT C:\Program Files\MiKTeX 2.9\tex\latex\url\url.sty
INPUT C:\Program Files\MiKTeX 2.9\tex\latex\url\url.sty
INPUT C:\Users\topdo\AppData\Roaming\MiKTeX\2.9\tex\generic\bitset\bitset.sty
INPUT C:\Users\topdo\AppData\Roaming\MiKTeX\2.9\tex\generic\bitset\bitset.sty
INPUT C:\Users\topdo\AppData\Roaming\MiKTeX\2.9\tex\generic\bigintcalc\bigintcalc.sty
INPUT C:\Users\topdo\AppData\Roaming\MiKTeX\2.9\tex\generic\bigintcalc\bigintcalc.sty
INPUT C:\Users\topdo\AppData\Roaming\MiKTeX\2.9\tex\generic\atbegshi\atbegshi.sty
INPUT C:\Users\topdo\AppData\Roaming\MiKTeX\2.9\tex\generic\atbegshi\atbegshi.sty
INPUT C:\Program Files\MiKTeX 2.9\tex\latex\hyperref\hpdftex.def
INPUT C:\Program Files\MiKTeX 2.9\tex\latex\hyperref\hpdftex.def
INPUT C:\Users\topdo\AppData\Roaming\MiKTeX\2.9\tex\latex\atveryend\atveryend.sty
INPUT C:\Users\topdo\AppData\Roaming\MiKTeX\2.9\tex\latex\atveryend\atveryend.sty
INPUT C:\Users\topdo\AppData\Roaming\MiKTeX\2.9\tex\latex\rerunfilecheck\rerunfilecheck.sty
INPUT C:\Users\topdo\AppData\Roaming\MiKTeX\2.9\tex\latex\rerunfilecheck\rerunfilecheck.sty
INPUT C:\Users\topdo\AppData\Roaming\MiKTeX\2.9\tex\generic\uniquecounter\uniquecounter.sty
INPUT C:\Users\topdo\AppData\Roaming\MiKTeX\2.9\tex\generic\uniquecounter\uniquecounter.sty
INPUT C:\Program Files\MiKTeX 2.9\tex\latex\amsfonts\amsfonts.sty
INPUT C:\Program Files\MiKTeX 2.9\tex\latex\amsfonts\amsfonts.sty
INPUT C:\Program Files\MiKTeX 2.9\tex\latex\listings\listings.sty
INPUT C:\Program Files\MiKTeX 2.9\tex\latex\listings\listings.sty
INPUT C:\Program Files\MiKTeX 2.9\tex\latex\listings\lstmisc.sty
INPUT C:\Program Files\MiKTeX 2.9\tex\latex\listings\lstmisc.sty
INPUT C:\Program Files\MiKTeX 2.9\tex\latex\listings\listings.cfg
INPUT C:\Program Files\MiKTeX 2.9\tex\latex\listings\listings.cfg
INPUT C:\Users\topdo\AppData\Roaming\MiKTeX\2.9\tex\latex\float\float.sty
INPUT C:\Users\topdo\AppData\Roaming\MiKTeX\2.9\tex\latex\float\float.sty
INPUT C:\Program Files\MiKTeX 2.9\tex\latex\l3backend\l3backend-pdfmode.def
INPUT C:\Program Files\MiKTeX 2.9\tex\latex\l3backend\l3backend-pdfmode.def
INPUT c:\Users\topdo\OneDrive\repos\lab1\lab8_report\main.aux
INPUT c:\Users\topdo\OneDrive\repos\lab1\lab8_report\main.aux
OUTPUT c:\Users\topdo\OneDrive\repos\lab1\lab8_report\main.aux
INPUT C:\Program Files\MiKTeX 2.9\tex\context\base\mkii\supp-pdf.mkii
INPUT C:\Program Files\MiKTeX 2.9\tex\context\base\mkii\supp-pdf.mkii
INPUT C:\Program Files\MiKTeX 2.9\tex\latex\epstopdf-pkg\epstopdf-base.sty
INPUT C:\Program Files\MiKTeX 2.9\tex\latex\epstopdf-pkg\epstopdf-base.sty
INPUT C:\Program Files\MiKTeX 2.9\tex\latex\hyperref\nameref.sty
INPUT C:\Program Files\MiKTeX 2.9\tex\latex\hyperref\nameref.sty
INPUT C:\Users\topdo\AppData\Roaming\MiKTeX\2.9\tex\latex\refcount\refcount.sty
INPUT C:\Users\topdo\AppData\Roaming\MiKTeX\2.9\tex\latex\refcount\refcount.sty
INPUT C:\Users\topdo\AppData\Roaming\MiKTeX\2.9\tex\generic\gettitlestring\gettitlestring.sty
INPUT C:\Users\topdo\AppData\Roaming\MiKTeX\2.9\tex\generic\gettitlestring\gettitlestring.sty
INPUT c:\Users\topdo\OneDrive\repos\lab1\lab8_report\main.out
INPUT c:\Users\topdo\OneDrive\repos\lab1\lab8_report\main.out
INPUT c:\Users\topdo\OneDrive\repos\lab1\lab8_report\main.out
INPUT c:\Users\topdo\OneDrive\repos\lab1\lab8_report\main.out
OUTPUT c:\Users\topdo\OneDrive\repos\lab1\lab8_report\main.pdf
INPUT c:\Users\topdo\OneDrive\repos\lab1\lab8_report\main.out
INPUT c:\Users\topdo\OneDrive\repos\lab1\lab8_report\main.out
OUTPUT c:\Users\topdo\OneDrive\repos\lab1\lab8_report\main.out
INPUT C:\Users\topdo\AppData\Local\MiKTeX\2.9\fonts\tfm\lh\lh-t2a\lacc1440.tfm
INPUT C:\Users\topdo\AppData\Local\MiKTeX\2.9\fonts\tfm\lh\lh-t2a\labx1440.tfm
INPUT C:\Users\topdo\AppData\Local\MiKTeX\2.9\fonts\tfm\lh\lh-t2a\labx1728.tfm
INPUT C:\Program Files\MiKTeX 2.9\fonts\tfm\public\cm\cmmi12.tfm
INPUT C:\Program Files\MiKTeX 2.9\fonts\tfm\public\cm\cmsy10.tfm
INPUT C:\Program Files\MiKTeX 2.9\fonts\tfm\public\cm\cmex10.tfm
INPUT C:\Program Files\MiKTeX 2.9\fonts\tfm\public\amsfonts\cmextra\cmex7.tfm
INPUT C:\Program Files\MiKTeX 2.9\tex\latex\amsfonts\umsa.fd
INPUT C:\Program Files\MiKTeX 2.9\tex\latex\amsfonts\umsa.fd
INPUT C:\Program Files\MiKTeX 2.9\fonts\tfm\public\amsfonts\symbols\msam10.tfm
INPUT C:\Program Files\MiKTeX 2.9\fonts\tfm\public\amsfonts\symbols\msam10.tfm
INPUT C:\Program Files\MiKTeX 2.9\fonts\tfm\public\amsfonts\symbols\msam7.tfm
INPUT C:\Program Files\MiKTeX 2.9\tex\latex\amsfonts\umsb.fd
INPUT C:\Program Files\MiKTeX 2.9\tex\latex\amsfonts\umsb.fd
INPUT C:\Program Files\MiKTeX 2.9\fonts\tfm\public\amsfonts\symbols\msbm10.tfm
INPUT C:\Program Files\MiKTeX 2.9\fonts\tfm\public\amsfonts\symbols\msbm10.tfm
INPUT C:\Program Files\MiKTeX 2.9\fonts\tfm\public\amsfonts\symbols\msbm7.tfm
INPUT C:\Users\topdo\AppData\Local\MiKTeX\2.9\pdftex\config\pdftex.map
INPUT C:\Users\topdo\AppData\Local\MiKTeX\2.9\fonts\tfm\lh\lh-t2a\larm2488.tfm
INPUT C:\Users\topdo\AppData\Local\MiKTeX\2.9\fonts\tfm\lh\lh-t2a\labx2488.tfm
INPUT c:\Users\topdo\OneDrive\repos\lab1\lab8_report\main.toc
INPUT c:\Users\topdo\OneDrive\repos\lab1\lab8_report\main.toc
OUTPUT c:\Users\topdo\OneDrive\repos\lab1\lab8_report\main.toc
INPUT c:\Users\topdo\OneDrive\repos\lab1\lab8_report\task.tex
INPUT c:\Users\topdo\OneDrive\repos\lab1\lab8_report\task.tex
INPUT C:\Users\topdo\AppData\Local\MiKTeX\2.9\fonts\tfm\lh\lh-t2a\larm1728.tfm
INPUT c:\Users\topdo\OneDrive\repos\lab1\lab8_report\theory.tex
INPUT c:\Users\topdo\OneDrive\repos\lab1\lab8_report\theory.tex
INPUT C:\Program Files\MiKTeX 2.9\fonts\tfm\jknappen\ec\tcrm1440.tfm
INPUT c:\Users\topdo\OneDrive\repos\lab1\lab8_report\implementation.tex
INPUT c:\Users\topdo\OneDrive\repos\lab1\lab8_report\implementation.tex
INPUT C:\Users\topdo\AppData\Local\MiKTeX\2.9\fonts\tfm\lh\lh-t2a\larm1200.tfm
INPUT C:\Users\topdo\AppData\Local\MiKTeX\2.9\fonts\tfm\lh\lh-t2a\lati1200.tfm
INPUT C:\Program Files\MiKTeX 2.9\fonts\tfm\public\cm\cmti12.tfm
INPUT C:\Users\topdo\AppData\Local\MiKTeX\2.9\fonts\tfm\lh\lh-t2a\labx1200.tfm
INPUT C:\Program Files\MiKTeX 2.9\fonts\tfm\public\cm\cmr12.tfm
INPUT C:\Program Files\MiKTeX 2.9\fonts\tfm\public\cm\cmr8.tfm
INPUT C:\Program Files\MiKTeX 2.9\fonts\tfm\public\cm\cmr6.tfm
INPUT C:\Program Files\MiKTeX 2.9\fonts\tfm\public\cm\cmmi12.tfm
INPUT C:\Program Files\MiKTeX 2.9\fonts\tfm\public\cm\cmmi8.tfm
INPUT C:\Program Files\MiKTeX 2.9\fonts\tfm\public\cm\cmmi6.tfm
INPUT C:\Program Files\MiKTeX 2.9\fonts\tfm\public\cm\cmsy10.tfm
INPUT C:\Program Files\MiKTeX 2.9\fonts\tfm\public\cm\cmsy8.tfm
INPUT C:\Program Files\MiKTeX 2.9\fonts\tfm\public\cm\cmsy6.tfm
INPUT C:\Program Files\MiKTeX 2.9\fonts\tfm\public\cm\cmex10.tfm
INPUT C:\Program Files\MiKTeX 2.9\fonts\tfm\public\amsfonts\cmextra\cmex8.tfm
INPUT C:\Program Files\MiKTeX 2.9\fonts\tfm\public\amsfonts\cmextra\cmex7.tfm
INPUT C:\Program Files\MiKTeX 2.9\fonts\tfm\public\amsfonts\symbols\msam10.tfm
INPUT C:\Program Files\MiKTeX 2.9\fonts\tfm\public\amsfonts\symbols\msam10.tfm
INPUT C:\Program Files\MiKTeX 2.9\fonts\tfm\public\amsfonts\symbols\msam7.tfm
INPUT C:\Program Files\MiKTeX 2.9\fonts\tfm\public\amsfonts\symbols\msbm10.tfm
INPUT C:\Program Files\MiKTeX 2.9\fonts\tfm\public\amsfonts\symbols\msbm10.tfm
INPUT C:\Program Files\MiKTeX 2.9\fonts\tfm\public\amsfonts\symbols\msbm7.tfm
INPUT c:\Users\topdo\OneDrive\repos\lab1\lab8_report\result.tex
INPUT c:\Users\topdo\OneDrive\repos\lab1\lab8_report\result.tex
INPUT c:\Users\topdo\OneDrive\repos\lab1\lab8_report\literature.tex
INPUT c:\Users\topdo\OneDrive\repos\lab1\lab8_report\literature.tex
INPUT c:\Users\topdo\OneDrive\repos\lab1\lab8_report\main.aux
INPUT c:\Users\topdo\OneDrive\repos\lab1\lab8_report\main.out
INPUT c:\Users\topdo\OneDrive\repos\lab1\lab8_report\main.out
INPUT C:\Users\topdo\AppData\Local\MiKTeX\2.9\fonts\pk\ljfour\lh\lh-t2a\dpi600\larm1200.pk
INPUT C:\Users\topdo\AppData\Local\MiKTeX\2.9\fonts\pk\ljfour\lh\lh-t2a\dpi600\larm1200.pk
INPUT C:\Users\topdo\AppData\Local\MiKTeX\2.9\fonts\pk\ljfour\lh\lh-t2a\dpi600\labx1200.pk
INPUT C:\Users\topdo\AppData\Local\MiKTeX\2.9\fonts\pk\ljfour\lh\lh-t2a\dpi600\labx1200.pk
INPUT C:\Users\topdo\AppData\Local\MiKTeX\2.9\fonts\pk\ljfour\lh\lh-t2a\dpi600\lati1200.pk
INPUT C:\Users\topdo\AppData\Local\MiKTeX\2.9\fonts\pk\ljfour\lh\lh-t2a\dpi600\lati1200.pk
INPUT C:\Users\topdo\AppData\Local\MiKTeX\2.9\fonts\pk\ljfour\jknappen\ec\dpi600\tcrm1440.pk
INPUT C:\Users\topdo\AppData\Local\MiKTeX\2.9\fonts\pk\ljfour\jknappen\ec\dpi600\tcrm1440.pk
INPUT C:\Users\topdo\AppData\Local\MiKTeX\2.9\fonts\pk\ljfour\lh\lh-t2a\dpi600\labx1440.pk
INPUT C:\Users\topdo\AppData\Local\MiKTeX\2.9\fonts\pk\ljfour\lh\lh-t2a\dpi600\labx1440.pk
INPUT C:\Users\topdo\AppData\Local\MiKTeX\2.9\fonts\pk\ljfour\lh\lh-t2a\dpi600\labx2488.pk
INPUT C:\Users\topdo\AppData\Local\MiKTeX\2.9\fonts\pk\ljfour\lh\lh-t2a\dpi600\labx2488.pk
INPUT C:\Users\topdo\AppData\Local\MiKTeX\2.9\fonts\pk\ljfour\lh\lh-t2a\dpi600\larm1440.pk
INPUT C:\Users\topdo\AppData\Local\MiKTeX\2.9\fonts\pk\ljfour\lh\lh-t2a\dpi600\larm1440.pk
INPUT C:\Users\topdo\AppData\Local\MiKTeX\2.9\fonts\pk\ljfour\lh\lh-t2a\dpi600\labx1728.pk
INPUT C:\Users\topdo\AppData\Local\MiKTeX\2.9\fonts\pk\ljfour\lh\lh-t2a\dpi600\labx1728.pk
INPUT C:\Users\topdo\AppData\Local\MiKTeX\2.9\fonts\pk\ljfour\lh\lh-t2a\dpi600\lacc1440.pk
INPUT C:\Users\topdo\AppData\Local\MiKTeX\2.9\fonts\pk\ljfour\lh\lh-t2a\dpi600\lacc1440.pk
INPUT C:\Program Files\MiKTeX 2.9\fonts\type1\public\amsfonts\cm\cmex10.pfb
INPUT C:\Program Files\MiKTeX 2.9\fonts\type1\public\amsfonts\cm\cmex10.pfb
INPUT C:\Program Files\MiKTeX 2.9\fonts\type1\public\amsfonts\cm\cmmi10.pfb
INPUT C:\Program Files\MiKTeX 2.9\fonts\type1\public\amsfonts\cm\cmmi10.pfb
INPUT C:\Program Files\MiKTeX 2.9\fonts\type1\public\amsfonts\cm\cmmi12.pfb
INPUT C:\Program Files\MiKTeX 2.9\fonts\type1\public\amsfonts\cm\cmmi12.pfb
INPUT C:\Program Files\MiKTeX 2.9\fonts\type1\public\amsfonts\cm\cmmi7.pfb
INPUT C:\Program Files\MiKTeX 2.9\fonts\type1\public\amsfonts\cm\cmmi7.pfb
INPUT C:\Program Files\MiKTeX 2.9\fonts\type1\public\amsfonts\cm\cmr10.pfb
INPUT C:\Program Files\MiKTeX 2.9\fonts\type1\public\amsfonts\cm\cmr10.pfb
INPUT C:\Program Files\MiKTeX 2.9\fonts\type1\public\amsfonts\cm\cmr12.pfb
INPUT C:\Program Files\MiKTeX 2.9\fonts\type1\public\amsfonts\cm\cmr12.pfb
INPUT C:\Program Files\MiKTeX 2.9\fonts\type1\public\amsfonts\cm\cmr7.pfb
INPUT C:\Program Files\MiKTeX 2.9\fonts\type1\public\amsfonts\cm\cmr7.pfb
INPUT C:\Program Files\MiKTeX 2.9\fonts\type1\public\amsfonts\cm\cmsy10.pfb
INPUT C:\Program Files\MiKTeX 2.9\fonts\type1\public\amsfonts\cm\cmsy10.pfb
