\relax 
\providecommand\hyper@newdestlabel[2]{}
\@nameuse{bbl@beforestart}
\catcode `"\active 
\providecommand\HyperFirstAtBeginDocument{\AtBeginDocument}
\HyperFirstAtBeginDocument{\ifx\hyper@anchor\@undefined
\global\let\oldcontentsline\contentsline
\gdef\contentsline#1#2#3#4{\oldcontentsline{#1}{#2}{#3}}
\global\let\oldnewlabel\newlabel
\gdef\newlabel#1#2{\newlabelxx{#1}#2}
\gdef\newlabelxx#1#2#3#4#5#6{\oldnewlabel{#1}{{#2}{#3}}}
\AtEndDocument{\ifx\hyper@anchor\@undefined
\let\contentsline\oldcontentsline
\let\newlabel\oldnewlabel
\fi}
\fi}
\global\let\hyper@last\relax 
\gdef\HyperFirstAtBeginDocument#1{#1}
\providecommand\HyField@AuxAddToFields[1]{}
\providecommand\HyField@AuxAddToCoFields[2]{}
\babel@aux{russian}{}
\@writefile{toc}{\contentsline {chapter}{\numberline  {1}Постановка задачи}{2}{chapter.1}\protected@file@percent }
\@writefile{lof}{\runinsectionskip }
\@writefile{lot}{\runinsectionskip }
\@writefile{toc}{\contentsline {chapter}{\numberline  {2}Теория}{3}{chapter.2}\protected@file@percent }
\@writefile{lof}{\runinsectionskip }
\@writefile{lot}{\runinsectionskip }
\@writefile{toc}{\contentsline {chapter}{\numberline  {3}Реализация}{5}{chapter.3}\protected@file@percent }
\@writefile{lof}{\runinsectionskip }
\@writefile{lot}{\runinsectionskip }
\@writefile{toc}{\contentsline {section}{\numberline  {3.1}Результаты}{5}{section.3.1}\protected@file@percent }
\@writefile{lot}{\contentsline {table}{\numberline  {3.1}Результаты подсчета интервальных оценок, $n = 20$}{5}{table.3.1}\protected@file@percent }
\@writefile{lot}{\contentsline {table}{\numberline  {3.2}Результаты подсчета интервальных оценок, $n = 100$}{5}{table.3.2}\protected@file@percent }
\@writefile{toc}{\contentsline {chapter}{\numberline  {4}Обсуждение}{6}{chapter.4}\protected@file@percent }
\@writefile{lof}{\runinsectionskip }
\@writefile{lot}{\runinsectionskip }
\@writefile{toc}{\contentsline {chapter}{\numberline  {5}Литература}{7}{chapter.5}\protected@file@percent }
\@writefile{lof}{\runinsectionskip }
\@writefile{lot}{\runinsectionskip }
