\relax 
\providecommand\hyper@newdestlabel[2]{}
\@nameuse{bbl@beforestart}
\catcode `"\active 
\providecommand\HyperFirstAtBeginDocument{\AtBeginDocument}
\HyperFirstAtBeginDocument{\ifx\hyper@anchor\@undefined
\global\let\oldcontentsline\contentsline
\gdef\contentsline#1#2#3#4{\oldcontentsline{#1}{#2}{#3}}
\global\let\oldnewlabel\newlabel
\gdef\newlabel#1#2{\newlabelxx{#1}#2}
\gdef\newlabelxx#1#2#3#4#5#6{\oldnewlabel{#1}{{#2}{#3}}}
\AtEndDocument{\ifx\hyper@anchor\@undefined
\let\contentsline\oldcontentsline
\let\newlabel\oldnewlabel
\fi}
\fi}
\global\let\hyper@last\relax 
\gdef\HyperFirstAtBeginDocument#1{#1}
\providecommand\HyField@AuxAddToFields[1]{}
\providecommand\HyField@AuxAddToCoFields[2]{}
\babel@aux{russian}{}
\@writefile{toc}{\contentsline {chapter}{\numberline  {1}Постановка задачи}{2}{chapter.1}\protected@file@percent }
\@writefile{lof}{\runinsectionskip }
\@writefile{lot}{\runinsectionskip }
\@writefile{toc}{\contentsline {chapter}{\numberline  {2}Теория}{3}{chapter.2}\protected@file@percent }
\@writefile{lof}{\runinsectionskip }
\@writefile{lot}{\runinsectionskip }
\@writefile{toc}{\contentsline {section}{\numberline  {2.1}Двумерное нормальное распределение}{3}{section.2.1}\protected@file@percent }
\@writefile{toc}{\contentsline {section}{\numberline  {2.2}Корреляционный момент (ковариация) и коэффициент корреляции}{3}{section.2.2}\protected@file@percent }
\@writefile{toc}{\contentsline {section}{\numberline  {2.3}Выборочные коэффициенты корреляции}{4}{section.2.3}\protected@file@percent }
\@writefile{toc}{\contentsline {subsection}{\numberline  {2.3.1}Выборочный коэффициент корреляции Пирсона}{4}{subsection.2.3.1}\protected@file@percent }
\@writefile{toc}{\contentsline {subsection}{\numberline  {2.3.2}Выборочный квадрантный коэффициент корреляции}{4}{subsection.2.3.2}\protected@file@percent }
\@writefile{toc}{\contentsline {subsection}{\numberline  {2.3.3}Выборочный коэффициент ранговой корреляции Спирмена}{4}{subsection.2.3.3}\protected@file@percent }
\@writefile{toc}{\contentsline {chapter}{\numberline  {3}Реализация}{6}{chapter.3}\protected@file@percent }
\@writefile{lof}{\runinsectionskip }
\@writefile{lot}{\runinsectionskip }
\@writefile{toc}{\contentsline {section}{\numberline  {3.1}Результаты}{6}{section.3.1}\protected@file@percent }
\@writefile{toc}{\contentsline {subsection}{\numberline  {3.1.1}Двумерное нормальное распределение}{6}{subsection.3.1.1}\protected@file@percent }
\@writefile{lof}{\contentsline {figure}{\numberline  {3.1}Графики двумерного нормального распределения при $\rho = 0$}{6}{figure.3.1}\protected@file@percent }
\@writefile{lof}{\contentsline {figure}{\numberline  {3.2}Графики двумерного нормального распределения при $\rho = 0.5$}{7}{figure.3.2}\protected@file@percent }
\@writefile{lof}{\contentsline {figure}{\numberline  {3.3}Графики двумерного нормального распределения при $\rho = 0.9$}{7}{figure.3.3}\protected@file@percent }
\@writefile{lot}{\contentsline {table}{\numberline  {3.1}Двумерное нормальное распределение, $n = 20$}{8}{table.3.1}\protected@file@percent }
\@writefile{lot}{\contentsline {table}{\numberline  {3.2}Двумерное нормальное распределение, $n = 60$}{8}{table.3.2}\protected@file@percent }
\@writefile{lot}{\contentsline {table}{\numberline  {3.3}Двумерное нормальное распределение, $n = 100$}{9}{table.3.3}\protected@file@percent }
\@writefile{lot}{\contentsline {table}{\numberline  {3.4}Двумерное нормальное распределение, $n = 1000$}{9}{table.3.4}\protected@file@percent }
\@writefile{toc}{\contentsline {subsection}{\numberline  {3.1.2}Смесь нормальных распределений}{10}{subsection.3.1.2}\protected@file@percent }
\@writefile{lof}{\contentsline {figure}{\numberline  {3.4}График смеси нормальных распределений}{10}{figure.3.4}\protected@file@percent }
\@writefile{lot}{\contentsline {table}{\numberline  {3.5}Двумерное нормальное распределение, $n = 1000$}{10}{table.3.5}\protected@file@percent }
\@writefile{toc}{\contentsline {chapter}{\numberline  {4}Обсуждение}{11}{chapter.4}\protected@file@percent }
\@writefile{lof}{\runinsectionskip }
\@writefile{lot}{\runinsectionskip }
\@writefile{toc}{\contentsline {chapter}{\numberline  {5}Литература}{12}{chapter.5}\protected@file@percent }
\@writefile{lof}{\runinsectionskip }
\@writefile{lot}{\runinsectionskip }
