# Fdb version 3
["pdflatex"] 1589709485 "c:/Users/topdo/PycharmProjects/lab1/lab1_report/main.tex" "c:/Users/topdo/PycharmProjects/lab1/lab1_report/main.pdf" "main" 1589709495
  "../lab1_images/cauchy10.png" 1588435322 21951 7e4ff606b46bb80a259d5611789664c2 ""
  "../lab1_images/cauchy1000.png" 1588435323 14075 0ce891fd68f5367b6ab3095dc06ca288 ""
  "../lab1_images/cauchy50.png" 1588435323 18816 290845e1dc211790214de2c3f72f8c76 ""
  "../lab1_images/laplace10.png" 1588452827 16746 f28627fa224240f98dd7ff923c27f4de ""
  "../lab1_images/laplace1000.png" 1588452827 20875 1ee6ff8b5aa0fb2a76312574d53602fd ""
  "../lab1_images/laplace50.png" 1588452827 19944 844014d67b672c38dab66cc464a00738 ""
  "../lab1_images/normal10.png" 1588435312 17963 9bf29b29ba37c546b05ac8379b4b6934 ""
  "../lab1_images/normal1000.png" 1588435312 18214 6172b63574250229925b38fddc869897 ""
  "../lab1_images/normal50.png" 1588435312 17939 f9aadfe0301bd3604ac6db9a2e873ffb ""
  "../lab1_images/poisson10.png" 1588587937 21847 47ea6b21ca099e177f5ae40b310ef4c0 ""
  "../lab1_images/poisson1000.png" 1588587938 14835 4154b674e092ff140f3f89f512187e62 ""
  "../lab1_images/poisson50.png" 1588587938 22167 7002053928c2df7ce04b41a1f7215f4f ""
  "../lab1_images/uniform10.png" 1588453316 12093 2a179b335c370ac395beaddf6907ee49 ""
  "../lab1_images/uniform1000.png" 1588453316 11509 eb69708a1f90c17caa2397e7395b0785 ""
  "../lab1_images/uniform50.png" 1588453316 11819 47fbb41cfa56923caea5769e6128fa41 ""
  "C:/Program Files/MiKTeX 2.9/fonts/tfm/jknappen/ec/tcrm1440.tfm" 993062510 1460 05250f74aea2bdcfe9d6766811b8b7b2 ""
  "C:/Program Files/MiKTeX 2.9/fonts/tfm/public/amsfonts/cmextra/cmex7.tfm" 1233951848 1004 54797486969f23fa377b128694d548df ""
  "C:/Program Files/MiKTeX 2.9/fonts/tfm/public/amsfonts/symbols/msam10.tfm" 1233951854 916 f87d7c45f9c908e672703b83b72241a3 ""
  "C:/Program Files/MiKTeX 2.9/fonts/tfm/public/amsfonts/symbols/msam5.tfm" 1233951854 924 9904cf1d39e9767e7a3622f2a125a565 ""
  "C:/Program Files/MiKTeX 2.9/fonts/tfm/public/amsfonts/symbols/msam7.tfm" 1233951854 928 2dc8d444221b7a635bb58038579b861a ""
  "C:/Program Files/MiKTeX 2.9/fonts/tfm/public/amsfonts/symbols/msbm10.tfm" 1233951854 908 2921f8a10601f252058503cc6570e581 ""
  "C:/Program Files/MiKTeX 2.9/fonts/tfm/public/amsfonts/symbols/msbm5.tfm" 1233951854 940 75ac932a52f80982a9f8ea75d03a34cf ""
  "C:/Program Files/MiKTeX 2.9/fonts/tfm/public/amsfonts/symbols/msbm7.tfm" 1233951854 940 228d6584342e91276bf566bcf9716b83 ""
  "C:/Program Files/MiKTeX 2.9/fonts/tfm/public/cm/cmex10.tfm" 1136765053 992 662f679a0b3d2d53c1b94050fdaa3f50 ""
  "C:/Program Files/MiKTeX 2.9/fonts/tfm/public/cm/cmmi12.tfm" 1136765053 1524 4414a8315f39513458b80dfc63bff03a ""
  "C:/Program Files/MiKTeX 2.9/fonts/tfm/public/cm/cmr12.tfm" 1136765053 1288 655e228510b4c2a1abe905c368440826 ""
  "C:/Program Files/MiKTeX 2.9/fonts/tfm/public/cm/cmsy10.tfm" 1136765053 1124 6c73e740cf17375f03eec0ee63599741 ""
  "C:/Program Files/MiKTeX 2.9/fonts/tfm/public/cm/cmti12.tfm" 1136765053 1484 ed72f8f5cf654cda15ecc8e32bfcbee5 ""
  "C:/Program Files/MiKTeX 2.9/fonts/type1/public/amsfonts/cm/cmex10.pfb" 1247596667 30251 6afa5cb1d0204815a708a080681d4674 ""
  "C:/Program Files/MiKTeX 2.9/fonts/type1/public/amsfonts/cm/cmmi10.pfb" 1247596667 36299 5f9df58c2139e7edcf37c8fca4bd384d ""
  "C:/Program Files/MiKTeX 2.9/fonts/type1/public/amsfonts/cm/cmmi12.pfb" 1247596667 36741 0ee9e374ec3e30da87cdfb0ea3575226 ""
  "C:/Program Files/MiKTeX 2.9/fonts/type1/public/amsfonts/cm/cmmi7.pfb" 1247596667 36281 c355509802a035cadc5f15869451dcee ""
  "C:/Program Files/MiKTeX 2.9/fonts/type1/public/amsfonts/cm/cmr10.pfb" 1247596667 35752 024fb6c41858982481f6968b5fc26508 ""
  "C:/Program Files/MiKTeX 2.9/fonts/type1/public/amsfonts/cm/cmr12.pfb" 1247596667 32722 d7379af29a190c3f453aba36302ff5a9 ""
  "C:/Program Files/MiKTeX 2.9/fonts/type1/public/amsfonts/cm/cmr7.pfb" 1247596667 32762 7fee39e011c23b3589931effd97b9702 ""
  "C:/Program Files/MiKTeX 2.9/fonts/type1/public/amsfonts/cm/cmsy10.pfb" 1247596667 32569 5e5ddc8df908dea60932f3c484a54c0d ""
  "C:/Program Files/MiKTeX 2.9/tex/context/base/mkii/supp-pdf.mkii" 1580390158 71627 94eb9990bed73c364d7f53f960cc8c5b ""
  "C:/Program Files/MiKTeX 2.9/tex/generic/atbegshi/atbegshi.sty" 1575571100 24708 5584a51a7101caf7e6bbf1fc27d8f7b1 ""
  "C:/Program Files/MiKTeX 2.9/tex/generic/babel/babel.def" 1584888153 91221 9f3e17ba1169b085116fbeae6d53cd6a ""
  "C:/Program Files/MiKTeX 2.9/tex/generic/babel/babel.sty" 1584888153 18898 a389c5d9c1712e0ab1b7c6d94c0fbb10 ""
  "C:/Program Files/MiKTeX 2.9/tex/generic/babel/switch.def" 1584888153 15222 7aefa1398da602e1bc918951352802f0 ""
  "C:/Program Files/MiKTeX 2.9/tex/generic/babel/txtbabel.def" 1584888153 5220 42a6518b499d20676051f269c61f4d9a ""
  "C:/Program Files/MiKTeX 2.9/tex/generic/bigintcalc/bigintcalc.sty" 1576433602 40635 c40361e206be584d448876bba8a64a3b ""
  "C:/Program Files/MiKTeX 2.9/tex/generic/bitset/bitset.sty" 1575926576 33961 6b5c75130e435b2bfdb9f480a09a39f9 ""
  "C:/Program Files/MiKTeX 2.9/tex/generic/etexcmds/etexcmds.sty" 1576433638 7734 b98cbb34c81f667027c1e3ebdbfce34b ""
  "C:/Program Files/MiKTeX 2.9/tex/generic/gettitlestring/gettitlestring.sty" 1576433666 8371 9d55b8bd010bc717624922fb3477d92e ""
  "C:/Program Files/MiKTeX 2.9/tex/generic/iftex/iftex.sty" 1583523400 6501 4011d89d9621e0b0901138815ba5ff29 ""
  "C:/Program Files/MiKTeX 2.9/tex/generic/iftex/ifvtex.sty" 1583523400 1057 525c2192b5febbd8c1f662c9468335bb ""
  "C:/Program Files/MiKTeX 2.9/tex/generic/infwarerr/infwarerr.sty" 1575399508 8356 7bbb2c2373aa810be568c29e333da8ed ""
  "C:/Program Files/MiKTeX 2.9/tex/generic/intcalc/intcalc.sty" 1576433764 31769 002a487f55041f8e805cfbf6385ffd97 ""
  "C:/Program Files/MiKTeX 2.9/tex/generic/kvdefinekeys/kvdefinekeys.sty" 1576763304 5412 d5a2436094cd7be85769db90f29250a6 ""
  "C:/Program Files/MiKTeX 2.9/tex/generic/kvsetkeys/kvsetkeys.sty" 1576433820 13807 952b0226d4efca026f0e19dd266dcc22 ""
  "C:/Program Files/MiKTeX 2.9/tex/generic/ltxcmds/ltxcmds.sty" 1576433900 18552 1e1cc7b75da0dfaacce7cdcb27d306bf ""
  "C:/Program Files/MiKTeX 2.9/tex/generic/pdfescape/pdfescape.sty" 1575926700 19007 15924f7228aca6c6d184b115f4baa231 ""
  "C:/Program Files/MiKTeX 2.9/tex/generic/uniquecounter/uniquecounter.sty" 1576434012 7008 f92eaa0a3872ed622bbf538217cd2ab7 ""
  "C:/Program Files/MiKTeX 2.9/tex/latex/amsfonts/amsfonts.sty" 1358197772 5949 3f3fd50a8cc94c3d4cbf4fc66cd3df1c ""
  "C:/Program Files/MiKTeX 2.9/tex/latex/amsfonts/umsa.fd" 1358197772 961 6518c6525a34feb5e8250ffa91731cff ""
  "C:/Program Files/MiKTeX 2.9/tex/latex/amsfonts/umsb.fd" 1358197772 961 d02606146ba5601b5645f987c92e6193 ""
  "C:/Program Files/MiKTeX 2.9/tex/latex/amsmath/amsbsy.sty" 1580746575 2283 ca7ce284ab93c8eecdc6029dc5ccbd73 ""
  "C:/Program Files/MiKTeX 2.9/tex/latex/amsmath/amsgen.sty" 1580746577 4297 7f6eb9092061a11f87d08ed13515b48d ""
  "C:/Program Files/MiKTeX 2.9/tex/latex/amsmath/amsmath.sty" 1580746578 88523 baee036978c7a91f4e2bba43f05e5945 ""
  "C:/Program Files/MiKTeX 2.9/tex/latex/amsmath/amsopn.sty" 1580746579 4233 32e6abd27229755a83a8b7f18e583890 ""
  "C:/Program Files/MiKTeX 2.9/tex/latex/amsmath/amstext.sty" 1580746580 2508 8ff93b1137020e8f21930562a874ae66 ""
  "C:/Program Files/MiKTeX 2.9/tex/latex/arabi/bblopts.cfg" 1139961600 902 c30e5c373bc58bde21f8f63a3091626f ""
  "C:/Program Files/MiKTeX 2.9/tex/latex/atveryend/atveryend.sty" 1576101110 19336 ce7ae9438967282886b3b036cfad1e4d ""
  "C:/Program Files/MiKTeX 2.9/tex/latex/auxhook/auxhook.sty" 1576538732 3935 57aa3c3e203a5c2effb4d2bd2efbc323 ""
  "C:/Program Files/MiKTeX 2.9/tex/latex/babel-english/english.ldf" 1496846498 7219 9ff5fdcc865b01beca2b0fe4a46231d4 ""
  "C:/Program Files/MiKTeX 2.9/tex/latex/babel-russian/russianb.ldf" 1502527609 26775 c8ae0c5e664e3887bd445441d24e5ab6 ""
  "C:/Program Files/MiKTeX 2.9/tex/latex/base/fontenc.sty" 1582871666 4947 0c2888dd88121ae675fc6e82213623ba ""
  "C:/Program Files/MiKTeX 2.9/tex/latex/base/inputenc.sty" 1582871666 5050 8933a39ad74377accd18991c5eb90c58 ""
  "C:/Program Files/MiKTeX 2.9/tex/latex/base/makeidx.sty" 1582871666 1940 dd4f2aa11c89855a3c47d09758782ba5 ""
  "C:/Program Files/MiKTeX 2.9/tex/latex/base/t2aenc.dfu" 1582871666 9891 9d0875feb07a471658e4b3eeb906125d ""
  "C:/Program Files/MiKTeX 2.9/tex/latex/cyrillic/t2acmr.fd" 1523116589 2629 d9552c7bbba7c739be0e3edc79b79dbb ""
  "C:/Program Files/MiKTeX 2.9/tex/latex/cyrillic/t2aenc.def" 1523116589 12288 0675a914f4ef655c59b5d82e90103345 ""
  "C:/Program Files/MiKTeX 2.9/tex/latex/epstopdf-pkg/epstopdf-base.sty" 1580041542 14411 d1306dcf79a944f6988e688c1785f9ce ""
  "C:/Program Files/MiKTeX 2.9/tex/latex/float/float.sty" 1469023953 6916 16d2656a1984957e674b149555f1ea1d ""
  "C:/Program Files/MiKTeX 2.9/tex/latex/geometry/geometry.cfg" 1578053545 1104 7ac475a4e3466b0b43e138e9356bda83 ""
  "C:/Program Files/MiKTeX 2.9/tex/latex/geometry/geometry.sty" 1578053545 42759 9cf6c5257b1bc7af01a58859749dd37a ""
  "C:/Program Files/MiKTeX 2.9/tex/latex/graphics-cfg/color.cfg" 1465894292 1213 620bba36b25224fa9b7e1ccb4ecb76fd ""
  "C:/Program Files/MiKTeX 2.9/tex/latex/graphics-cfg/graphics.cfg" 1465894292 1224 978390e9c2234eab29404bc21b268d1e ""
  "C:/Program Files/MiKTeX 2.9/tex/latex/graphics-def/pdftex.def" 1515448300 17334 520b9b85ad8a2a48eda3f643e27a5179 ""
  "C:/Program Files/MiKTeX 2.9/tex/latex/graphics/dvipsnam.def" 1580746541 5034 1ddc361527c0bcf3d7b9f9b0c3c28113 ""
  "C:/Program Files/MiKTeX 2.9/tex/latex/graphics/graphics.sty" 1580746542 17508 04729abe63b66ec59ea56edcd722b058 ""
  "C:/Program Files/MiKTeX 2.9/tex/latex/graphics/graphicx.sty" 1580746542 9343 1b996612394a52e1efe89c8bfe8a5892 ""
  "C:/Program Files/MiKTeX 2.9/tex/latex/graphics/keyval.sty" 1580746542 2677 e3b24ff953e5b58d924f163d25380312 ""
  "C:/Program Files/MiKTeX 2.9/tex/latex/graphics/trig.sty" 1580746542 4093 d7fa7d81d2870d509d25b17d0245e735 ""
  "C:/Program Files/MiKTeX 2.9/tex/latex/hycolor/hycolor.sty" 1580380792 18571 4c28a13fc3d975e6e81c9bea1d697276 ""
  "C:/Program Files/MiKTeX 2.9/tex/latex/hyperref/hpdftex.def" 1579559748 50630 3d9728faf8630190cf601ce2cbe470d9 ""
  "C:/Program Files/MiKTeX 2.9/tex/latex/hyperref/hyperref.sty" 1579559748 238752 60dd338d71b6a4ab2192131f73dc908b ""
  "C:/Program Files/MiKTeX 2.9/tex/latex/hyperref/nameref.sty" 1579559748 13244 0070bcab7b5a88187847128d22faf4d8 ""
  "C:/Program Files/MiKTeX 2.9/tex/latex/hyperref/pd1enc.def" 1579559748 14134 32b36577d311ddb6522413c7581ee968 ""
  "C:/Program Files/MiKTeX 2.9/tex/latex/hyperref/puenc.def" 1579559748 122447 2f3bff59bea0a0fa94e11cc69e0f3066 ""
  "C:/Program Files/MiKTeX 2.9/tex/latex/kvoptions/kvoptions.sty" 1575059482 22520 c4c2dab203104295e1e618be7e5c0f5b ""
  "C:/Program Files/MiKTeX 2.9/tex/latex/l3backend/l3backend-pdfmode.def" 1584011114 25398 19ae1e59d7f4a47fefb457d851f6f503 ""
  "C:/Program Files/MiKTeX 2.9/tex/latex/letltxmacro/letltxmacro.sty" 1575399536 5766 13a9e8766c47f30327caf893ece86ac8 ""
  "C:/Program Files/MiKTeX 2.9/tex/latex/listings/listings.cfg" 1585220135 1879 e31effa752c61538383451ae21332364 ""
  "C:/Program Files/MiKTeX 2.9/tex/latex/listings/listings.sty" 1585220135 83225 64e57373f36316e4a09b517cbf1aba2e ""
  "C:/Program Files/MiKTeX 2.9/tex/latex/listings/lstmisc.sty" 1585220135 79106 ee25ce086f4a79d8cf73bac6f94c02a5 ""
  "C:/Program Files/MiKTeX 2.9/tex/latex/ncclatex/ncc.cls" 1137548520 14534 1844d5bff605f2174ecb1cef3807af58 ""
  "C:/Program Files/MiKTeX 2.9/tex/latex/ncclatex/ncc14.clo" 1012168800 3307 ce363724783ff6894b1c5fb7439f71be ""
  "C:/Program Files/MiKTeX 2.9/tex/latex/ncclatex/nccbiblist.sty" 1135438140 1562 028aa8be08352abedfc66b3302a58def ""
  "C:/Program Files/MiKTeX 2.9/tex/latex/ncclatex/nccbook.clo" 1135864920 1325 f0def2cdb32f61ed295589ea4033e392 ""
  "C:/Program Files/MiKTeX 2.9/tex/latex/ncclatex/nccdefaults.sty" 1137548940 3934 a1320ecd8d16519c7766cadf01e37153 ""
  "C:/Program Files/MiKTeX 2.9/tex/latex/ncclatex/nccheadings.sty" 1135776480 2020 a320dfbfe8e185b49cfc0f7b8fdb70c8 ""
  "C:/Program Files/MiKTeX 2.9/tex/latex/ncclatex/ncclatex.sty" 1137548640 5435 aa98913a392d7c1e34cb0d323c47ba3d ""
  "C:/Program Files/MiKTeX 2.9/tex/latex/ncclatex/nccold.sty" 1014156000 1289 60131e37a1e4ab08464c2bb73b54b48b ""
  "C:/Program Files/MiKTeX 2.9/tex/latex/ncclatex/ncctheorems.sty" 1137548820 2959 83f0d704170e2089e83862bc3fc68aad ""
  "C:/Program Files/MiKTeX 2.9/tex/latex/ncclatex/ncctitle.sty" 1135643880 6827 7222feb4b07b0a3775474db1d62207b6 ""
  "C:/Program Files/MiKTeX 2.9/tex/latex/ncclatex/ncctitlepage.sty" 1135641540 1338 e07b0ae0d3b4601144175ebc40c063cc ""
  "C:/Program Files/MiKTeX 2.9/tex/latex/ncctools/afterpackage.sty" 1565017809 1879 aaaf173937741a15d062985b54055590 ""
  "C:/Program Files/MiKTeX 2.9/tex/latex/ncctools/dcounter.sty" 1565017809 3893 7eb5156a3c2e3283d5e64e12ddf64b97 ""
  "C:/Program Files/MiKTeX 2.9/tex/latex/ncctools/desclist.sty" 1565017809 1390 454abec13eb4c29638f5d7d6a40010b4 ""
  "C:/Program Files/MiKTeX 2.9/tex/latex/ncctools/extdash.sty" 1565017809 3343 939938e61561c54f4ec03d93c62f415c ""
  "C:/Program Files/MiKTeX 2.9/tex/latex/ncctools/nccboxes.sty" 1565017809 4726 b0dec053c7e0a69312d7fd47367ca7ca ""
  "C:/Program Files/MiKTeX 2.9/tex/latex/ncctools/nccfloats.sty" 1565017809 5729 fea0186823900c89361c64ff191a4fab ""
  "C:/Program Files/MiKTeX 2.9/tex/latex/ncctools/nccfoots.sty" 1565017809 1230 756b2502150ce6dc2179faebbd40e701 ""
  "C:/Program Files/MiKTeX 2.9/tex/latex/ncctools/nccmath.sty" 1565017809 15059 b9ec0dfe305551751c94c3d416a3bea2 ""
  "C:/Program Files/MiKTeX 2.9/tex/latex/ncctools/nccpic.sty" 1565017809 2425 f8976e4c9b35770397900a636a10e74c ""
  "C:/Program Files/MiKTeX 2.9/tex/latex/ncctools/nccsect.sty" 1565017809 30930 0cf88936c95bad9dd5e105f43a74fe84 ""
  "C:/Program Files/MiKTeX 2.9/tex/latex/ncctools/nccthm.sty" 1565017809 7346 5a75881e9162664bc54555f255e9030e ""
  "C:/Program Files/MiKTeX 2.9/tex/latex/ncctools/textarea.sty" 1565017809 3366 a4bf4125bc928e22aece80f9f53a7164 ""
  "C:/Program Files/MiKTeX 2.9/tex/latex/ncctools/tocenter.sty" 1565017809 3528 2d7cbc09862aa7a8a8cb6ab5cd606ba5 ""
  "C:/Program Files/MiKTeX 2.9/tex/latex/ncctools/topsection.sty" 1565017809 1591 a3f6fb59e9b3170de40ca5d065aa90c5 ""
  "C:/Program Files/MiKTeX 2.9/tex/latex/ncctools/watermark.sty" 1565017809 2157 629feea530353e1d838a4fa0d252a369 ""
  "C:/Program Files/MiKTeX 2.9/tex/latex/pdftexcmds/pdftexcmds.sty" 1574597624 19963 36fd8e818f9f0f32e2db8413d4970122 ""
  "C:/Program Files/MiKTeX 2.9/tex/latex/refcount/refcount.sty" 1576433952 9878 9e94e8fa600d95f9c7731bb21dfb67a4 ""
  "C:/Program Files/MiKTeX 2.9/tex/latex/rerunfilecheck/rerunfilecheck.sty" 1575571282 9715 b051d5b493d9fe5f4bc251462d039e5f ""
  "C:/Program Files/MiKTeX 2.9/tex/latex/tools/indentfirst.sty" 1580644886 1619 d4cd7231755dd1dfa89af8ceddfb0e4d ""
  "C:/Program Files/MiKTeX 2.9/tex/latex/url/url.sty" 1388490452 12796 8edb7d69a20b857904dd0ea757c14ec9 ""
  "C:/Program Files/MiKTeX 2.9/tex/latex/xcolor/xcolor.sty" 1463135581 57049 34128738f682d033422ca125f82e5d62 ""
  "C:/Users/topdo/AppData/Local/MiKTeX/2.9/fonts/pk/ljfour/jknappen/ec/dpi600/tcrm1440.pk" 1588697295 16968 2e29bacc96544acdf22c62b30f431b29 ""
  "C:/Users/topdo/AppData/Local/MiKTeX/2.9/fonts/pk/ljfour/lh/lh-t2a/dpi600/labx1200.pk" 1588780543 29472 4aa43b341a869c5325960a62e6637936 ""
  "C:/Users/topdo/AppData/Local/MiKTeX/2.9/fonts/pk/ljfour/lh/lh-t2a/dpi600/labx1440.pk" 1588697398 36852 33f41cdc647f2c3772ff3e0b2e72a3ab ""
  "C:/Users/topdo/AppData/Local/MiKTeX/2.9/fonts/pk/ljfour/lh/lh-t2a/dpi600/labx1728.pk" 1588695995 45168 01f3c56a93a120e9566a56619a2cd6cd ""
  "C:/Users/topdo/AppData/Local/MiKTeX/2.9/fonts/pk/ljfour/lh/lh-t2a/dpi600/labx2488.pk" 1588695993 66304 19462f7f7af7665120aaa4325f50fa92 ""
  "C:/Users/topdo/AppData/Local/MiKTeX/2.9/fonts/pk/ljfour/lh/lh-t2a/dpi600/lacc1440.pk" 1588695997 35268 2a9fd42f7c03cb5394f482d4a2885ce1 ""
  "C:/Users/topdo/AppData/Local/MiKTeX/2.9/fonts/pk/ljfour/lh/lh-t2a/dpi600/larm1200.pk" 1588780542 27028 d0217f89aaa0888dd1554672303bbb33 ""
  "C:/Users/topdo/AppData/Local/MiKTeX/2.9/fonts/pk/ljfour/lh/lh-t2a/dpi600/larm1440.pk" 1588695994 32600 ac2c2c0aeeba4080a4ebd6ba4830d6a1 ""
  "C:/Users/topdo/AppData/Local/MiKTeX/2.9/fonts/pk/ljfour/lh/lh-t2a/dpi600/lati1200.pk" 1588697294 38684 d10b4aae3048db66fd924221c4e9daa9 ""
  "C:/Users/topdo/AppData/Local/MiKTeX/2.9/fonts/tfm/lh/lh-t2a/labx1200.tfm" 1588780541 3308 eee81981029f67083258db36df06e523 ""
  "C:/Users/topdo/AppData/Local/MiKTeX/2.9/fonts/tfm/lh/lh-t2a/labx1440.tfm" 1588695908 3304 6a543c07045572737981351171e0505e ""
  "C:/Users/topdo/AppData/Local/MiKTeX/2.9/fonts/tfm/lh/lh-t2a/labx1728.tfm" 1588695909 3312 d199be9bd555944e2403193d58a0256a ""
  "C:/Users/topdo/AppData/Local/MiKTeX/2.9/fonts/tfm/lh/lh-t2a/labx2488.tfm" 1588695912 3304 10c1a71cb294f8a8339c46823bcc15f2 ""
  "C:/Users/topdo/AppData/Local/MiKTeX/2.9/fonts/tfm/lh/lh-t2a/lacc1440.tfm" 1588695907 3168 52acd69369650fc3677a77795df7d5f5 ""
  "C:/Users/topdo/AppData/Local/MiKTeX/2.9/fonts/tfm/lh/lh-t2a/larm0700.tfm" 1588698233 3256 b15a2ce2310c0038b96c5235b038f0eb ""
  "C:/Users/topdo/AppData/Local/MiKTeX/2.9/fonts/tfm/lh/lh-t2a/larm1000.tfm" 1588697937 3220 0e417eaf233b160335902e97259a6c77 ""
  "C:/Users/topdo/AppData/Local/MiKTeX/2.9/fonts/tfm/lh/lh-t2a/larm1200.tfm" 1588697292 3240 c2435f2b5cd66d4930bc29b8df87967e ""
  "C:/Users/topdo/AppData/Local/MiKTeX/2.9/fonts/tfm/lh/lh-t2a/larm1440.tfm" 1588695828 3256 3daaa33cf35cf3f354983aa3214ecd7f ""
  "C:/Users/topdo/AppData/Local/MiKTeX/2.9/fonts/tfm/lh/lh-t2a/larm1728.tfm" 1588697290 3252 3140686608bdcae603a09a7973fb9e55 ""
  "C:/Users/topdo/AppData/Local/MiKTeX/2.9/fonts/tfm/lh/lh-t2a/larm2488.tfm" 1588695911 3264 8aa2086ebecf1132c0ba370957182f17 ""
  "C:/Users/topdo/AppData/Local/MiKTeX/2.9/fonts/tfm/lh/lh-t2a/lati1200.tfm" 1588697293 3512 f3a56cfe95a159371df20f73d1eb107d ""
  "C:/Users/topdo/AppData/Local/MiKTeX/2.9/miktex/data/le/pdftex/pdflatex.fmt" 1588695781 10007829 6a302109e8477c230a6a664bbd231701 ""
  "C:/Users/topdo/AppData/Local/MiKTeX/2.9/pdftex/config/pdftex.map" 1588695212 77580 0902bf85dfadfdef13ad4bb0cb98be38 ""
  "c:/Users/topdo/PycharmProjects/lab1/lab1_report/main.aux" 1589709487 3458 e63a4834986aada2256d8da9df304a7d ""
  "c:/Users/topdo/PycharmProjects/lab1/lab1_report/main.tex" 1589708721 2444 57fbce59a86c018ee99f9f282701aa3b ""
  "discussion.tex" 1589302122 440 c0ffc03bde4c3d00bf4756f4135ac877 ""
  "implementation.tex" 1589302056 1883 077d0e5f2d87032f9a489f4da68e17fb ""
  "literature.tex" 1589302195 149 a1cc1d11bdd4eaf233294cd3d58d5bd5 ""
  "main.aux" 1589709487 3458 e63a4834986aada2256d8da9df304a7d "pdflatex"
  "main.out" 1589709487 2313 d6a70171e7b62883d5d82f54a12fbbcb "pdflatex"
  "main.tex" 1589708721 2444 57fbce59a86c018ee99f9f282701aa3b ""
  "main.toc" 1589709487 1167 1b8e07a3d02c1db27463079bb972ce6c "pdflatex"
  "task.tex" 1589301998 763 423bb8ea643848d03474e20fc6ce62e9 ""
  "theory.tex" 1589709494 3692 727fbaa9ab89bea96b18ab9d188845fa ""
  (generated)
  "main.out"
  "main.aux"
  "c:/Users/topdo/PycharmProjects/lab1/lab1_report/main.log"
  "main.toc"
  "c:/Users/topdo/PycharmProjects/lab1/lab1_report/main.pdf"
  "main.log"
  "main.pdf"
