\relax 
\providecommand\hyper@newdestlabel[2]{}
\@nameuse{bbl@beforestart}
\catcode `"\active 
\providecommand\HyperFirstAtBeginDocument{\AtBeginDocument}
\HyperFirstAtBeginDocument{\ifx\hyper@anchor\@undefined
\global\let\oldcontentsline\contentsline
\gdef\contentsline#1#2#3#4{\oldcontentsline{#1}{#2}{#3}}
\global\let\oldnewlabel\newlabel
\gdef\newlabel#1#2{\newlabelxx{#1}#2}
\gdef\newlabelxx#1#2#3#4#5#6{\oldnewlabel{#1}{{#2}{#3}}}
\AtEndDocument{\ifx\hyper@anchor\@undefined
\let\contentsline\oldcontentsline
\let\newlabel\oldnewlabel
\fi}
\fi}
\global\let\hyper@last\relax 
\gdef\HyperFirstAtBeginDocument#1{#1}
\providecommand\HyField@AuxAddToFields[1]{}
\providecommand\HyField@AuxAddToCoFields[2]{}
\babel@aux{russian}{}
\@writefile{toc}{\contentsline {chapter}{\numberline  {1}Постановка задачи}{3}{chapter.1}\protected@file@percent }
\@writefile{lof}{\runinsectionskip }
\@writefile{lot}{\runinsectionskip }
\@writefile{toc}{\contentsline {chapter}{\numberline  {2}Теория}{5}{chapter.2}\protected@file@percent }
\@writefile{lof}{\runinsectionskip }
\@writefile{lot}{\runinsectionskip }
\@writefile{toc}{\contentsline {section}{\numberline  {2.1}Двумерное нормальное распределение}{5}{section.2.1}\protected@file@percent }
\@writefile{toc}{\contentsline {section}{\numberline  {2.2}Корреляционный момент (ковариация) и коэффициент корреляции}{5}{section.2.2}\protected@file@percent }
\@writefile{toc}{\contentsline {section}{\numberline  {2.3}Выборочные коэффициенты корреляции}{6}{section.2.3}\protected@file@percent }
\@writefile{toc}{\contentsline {subsection}{\numberline  {2.3.1}Выборочный коэффициент корреляции Пирсона}{6}{subsection.2.3.1}\protected@file@percent }
\@writefile{toc}{\contentsline {subsection}{\numberline  {2.3.2}Выборочный квадрантный коэффициент корреляции}{6}{subsection.2.3.2}\protected@file@percent }
\@writefile{toc}{\contentsline {subsection}{\numberline  {2.3.3}Выборочный коэффициент ранговой корреляции Спирмена}{6}{subsection.2.3.3}\protected@file@percent }
\@writefile{toc}{\contentsline {section}{\numberline  {2.4}Регрессионная модель описания данных}{7}{section.2.4}\protected@file@percent }
\@writefile{toc}{\contentsline {section}{\numberline  {2.5}Метод наименьших квадратов}{8}{section.2.5}\protected@file@percent }
\@writefile{toc}{\contentsline {section}{\numberline  {2.6}Метод наименьишх модулей (МНМ)}{8}{section.2.6}\protected@file@percent }
\@writefile{toc}{\contentsline {section}{\numberline  {2.7}Метод максимального правдоподобия}{8}{section.2.7}\protected@file@percent }
\@writefile{toc}{\contentsline {section}{\numberline  {2.8}Оценивание параметров нормального закона распределения}{9}{section.2.8}\protected@file@percent }
\@writefile{toc}{\contentsline {section}{\numberline  {2.9}Критерий согласия Пирсона}{9}{section.2.9}\protected@file@percent }
\@writefile{toc}{\contentsline {section}{\numberline  {2.10}Доверительные интервалы для $m$ и $\sigma $}{10}{section.2.10}\protected@file@percent }
\@writefile{toc}{\contentsline {chapter}{\numberline  {3}Реализация}{12}{chapter.3}\protected@file@percent }
\@writefile{lof}{\runinsectionskip }
\@writefile{lot}{\runinsectionskip }
\@writefile{toc}{\contentsline {section}{\numberline  {3.1}Результаты}{12}{section.3.1}\protected@file@percent }
\@writefile{toc}{\contentsline {subsection}{\numberline  {3.1.1}Двумерное нормальное распределение}{12}{subsection.3.1.1}\protected@file@percent }
\@writefile{lof}{\contentsline {figure}{\numberline  {3.1}Графики двумерного нормального распределения при $\rho = 0$}{12}{figure.3.1}\protected@file@percent }
\@writefile{lof}{\contentsline {figure}{\numberline  {3.2}Графики двумерного нормального распределения при $\rho = 0.5$}{13}{figure.3.2}\protected@file@percent }
\@writefile{lof}{\contentsline {figure}{\numberline  {3.3}Графики двумерного нормального распределения при $\rho = 0.9$}{13}{figure.3.3}\protected@file@percent }
\@writefile{lot}{\contentsline {table}{\numberline  {3.1}Двумерное нормальное распределение, $n = 20$}{14}{table.3.1}\protected@file@percent }
\@writefile{lot}{\contentsline {table}{\numberline  {3.2}Двумерное нормальное распределение, $n = 60$}{14}{table.3.2}\protected@file@percent }
\@writefile{lot}{\contentsline {table}{\numberline  {3.3}Двумерное нормальное распределение, $n = 100$}{15}{table.3.3}\protected@file@percent }
\@writefile{lot}{\contentsline {table}{\numberline  {3.4}Двумерное нормальное распределение, $n = 1000$}{15}{table.3.4}\protected@file@percent }
\@writefile{toc}{\contentsline {subsection}{\numberline  {3.1.2}Смесь нормальных распределений}{16}{subsection.3.1.2}\protected@file@percent }
\@writefile{lof}{\contentsline {figure}{\numberline  {3.4}График смеси нормальных распределений}{16}{figure.3.4}\protected@file@percent }
\@writefile{lot}{\contentsline {table}{\numberline  {3.5}Двумерное нормальное распределение, $n = 1000$}{16}{table.3.5}\protected@file@percent }
\@writefile{toc}{\contentsline {section}{\numberline  {3.2}Простая линейная регрессия}{17}{section.3.2}\protected@file@percent }
\@writefile{lot}{\contentsline {table}{\numberline  {3.6}Оценки коэффициентов линии регрессии для невозмущенной выборки}{17}{table.3.6}\protected@file@percent }
\@writefile{lot}{\contentsline {table}{\numberline  {3.7}Оценки коэффициентов линии регрессии для возмущенной выборки}{17}{table.3.7}\protected@file@percent }
\@writefile{lof}{\contentsline {figure}{\numberline  {3.5}Линейная регрессия для невозмущенной выборки}{17}{figure.3.5}\protected@file@percent }
\@writefile{lof}{\contentsline {figure}{\numberline  {3.6}Линейная регрессия для возмущенной выборки}{18}{figure.3.6}\protected@file@percent }
\@writefile{toc}{\contentsline {section}{\numberline  {3.3}Проверка гипотезы о законе распределения генеральной совокупности}{18}{section.3.3}\protected@file@percent }
\@writefile{lot}{\contentsline {table}{\numberline  {3.8}Оценки параметров методом максимального правдоподобия}{18}{table.3.8}\protected@file@percent }
\@writefile{lot}{\contentsline {table}{\numberline  {3.9}Таблица вычислений $\chi ^2$}{19}{table.3.9}\protected@file@percent }
\@writefile{toc}{\contentsline {section}{\numberline  {3.4}Доверительные интервалы для $m$ и $\sigma $}{19}{section.3.4}\protected@file@percent }
\@writefile{lot}{\contentsline {table}{\numberline  {3.10}Результаты подсчета интервальных оценок, $n = 20$}{19}{table.3.10}\protected@file@percent }
\@writefile{lot}{\contentsline {table}{\numberline  {3.11}Результаты подсчета интервальных оценок, $n = 100$}{19}{table.3.11}\protected@file@percent }
\@writefile{toc}{\contentsline {chapter}{\numberline  {4}Обсуждение}{20}{chapter.4}\protected@file@percent }
\@writefile{lof}{\runinsectionskip }
\@writefile{lot}{\runinsectionskip }
\@writefile{toc}{\contentsline {section}{\numberline  {4.1}Двумерное нормальное распределение}{20}{section.4.1}\protected@file@percent }
\@writefile{toc}{\contentsline {section}{\numberline  {4.2}Простая линейная регрессия}{20}{section.4.2}\protected@file@percent }
\@writefile{toc}{\contentsline {section}{\numberline  {4.3}Проверка гипотезы о законе распределения генеральной совокупности}{21}{section.4.3}\protected@file@percent }
\@writefile{toc}{\contentsline {section}{\numberline  {4.4}Доверительные интервалы $m$ и $\sigma $}{21}{section.4.4}\protected@file@percent }
\@writefile{toc}{\contentsline {chapter}{\numberline  {5}Литература}{22}{chapter.5}\protected@file@percent }
\@writefile{lof}{\runinsectionskip }
\@writefile{lot}{\runinsectionskip }
