\relax 
\providecommand\hyper@newdestlabel[2]{}
\@nameuse{bbl@beforestart}
\catcode `"\active 
\providecommand\HyperFirstAtBeginDocument{\AtBeginDocument}
\HyperFirstAtBeginDocument{\ifx\hyper@anchor\@undefined
\global\let\oldcontentsline\contentsline
\gdef\contentsline#1#2#3#4{\oldcontentsline{#1}{#2}{#3}}
\global\let\oldnewlabel\newlabel
\gdef\newlabel#1#2{\newlabelxx{#1}#2}
\gdef\newlabelxx#1#2#3#4#5#6{\oldnewlabel{#1}{{#2}{#3}}}
\AtEndDocument{\ifx\hyper@anchor\@undefined
\let\contentsline\oldcontentsline
\let\newlabel\oldnewlabel
\fi}
\fi}
\global\let\hyper@last\relax 
\gdef\HyperFirstAtBeginDocument#1{#1}
\providecommand\HyField@AuxAddToFields[1]{}
\providecommand\HyField@AuxAddToCoFields[2]{}
\babel@aux{russian}{}
\@writefile{toc}{\contentsline {chapter}{\numberline  {1}Постановка задачи}{2}{chapter.1}\protected@file@percent }
\@writefile{lof}{\runinsectionskip }
\@writefile{lot}{\runinsectionskip }
\@writefile{toc}{\contentsline {chapter}{\numberline  {2}Теория}{3}{chapter.2}\protected@file@percent }
\@writefile{lof}{\runinsectionskip }
\@writefile{lot}{\runinsectionskip }
\@writefile{toc}{\contentsline {section}{\numberline  {2.1}Регрессионная модель описания данных}{3}{section.2.1}\protected@file@percent }
\@writefile{toc}{\contentsline {section}{\numberline  {2.2}Метод наименьших квадратов}{3}{section.2.2}\protected@file@percent }
\@writefile{toc}{\contentsline {section}{\numberline  {2.3}Метод наименьишх модулей (МНМ)}{4}{section.2.3}\protected@file@percent }
\@writefile{toc}{\contentsline {chapter}{\numberline  {3}Реализация}{5}{chapter.3}\protected@file@percent }
\@writefile{lof}{\runinsectionskip }
\@writefile{lot}{\runinsectionskip }
\@writefile{toc}{\contentsline {section}{\numberline  {3.1}Результаты}{5}{section.3.1}\protected@file@percent }
\@writefile{lot}{\contentsline {table}{\numberline  {3.1}Оценки коэффициентов линии регрессии для невозмущенной выборки}{5}{table.3.1}\protected@file@percent }
\@writefile{lot}{\contentsline {table}{\numberline  {3.2}Оценки коэффициентов линии регрессии для возмущенной выборки}{5}{table.3.2}\protected@file@percent }
\@writefile{lof}{\contentsline {figure}{\numberline  {3.1}Линейная регрессия для невозмущенной выборки}{6}{figure.3.1}\protected@file@percent }
\@writefile{lof}{\contentsline {figure}{\numberline  {3.2}Линейная регрессия для возмущенной выборки}{6}{figure.3.2}\protected@file@percent }
\@writefile{toc}{\contentsline {chapter}{\numberline  {4}Обсуждение}{7}{chapter.4}\protected@file@percent }
\@writefile{lof}{\runinsectionskip }
\@writefile{lot}{\runinsectionskip }
\@writefile{toc}{\contentsline {chapter}{\numberline  {5}Литература}{8}{chapter.5}\protected@file@percent }
\@writefile{lof}{\runinsectionskip }
\@writefile{lot}{\runinsectionskip }
