\BOOKMARK [0][-]{chapter.1}{\376\377\004\037\004\076\004\101\004\102\004\060\004\075\004\076\004\062\004\072\004\060\000\040\004\067\004\060\004\064\004\060\004\107\004\070}{}% 1
\BOOKMARK [0][-]{chapter.2}{\376\377\004\042\004\065\004\076\004\100\004\070\004\117}{}% 2
\BOOKMARK [1][-]{section.2.1}{\376\377\004\040\004\060\004\101\004\077\004\100\004\065\004\064\004\065\004\073\004\065\004\075\004\070\004\117}{chapter.2}% 3
\BOOKMARK [1][-]{section.2.2}{\376\377\004\021\004\076\004\072\004\101\004\077\004\073\004\076\004\102\000\040\004\042\004\114\004\116\004\072\004\070}{chapter.2}% 4
\BOOKMARK [2][-]{subsection.2.2.1}{\376\377\004\036\004\077\004\100\004\065\004\064\004\065\004\073\004\065\004\075\004\070\004\065}{section.2.2}% 5
\BOOKMARK [2][-]{subsection.2.2.2}{\376\377\004\036\004\077\004\070\004\101\004\060\004\075\004\070\004\065}{section.2.2}% 6
\BOOKMARK [2][-]{subsection.2.2.3}{\376\377\004\037\004\076\004\101\004\102\004\100\004\076\004\065\004\075\004\070\004\065}{section.2.2}% 7
\BOOKMARK [1][-]{section.2.3}{\376\377\004\042\004\065\004\076\004\100\004\065\004\102\004\070\004\107\004\065\004\101\004\072\004\060\004\117\000\040\004\062\004\065\004\100\004\076\004\117\004\102\004\075\004\076\004\101\004\102\004\114\000\040\004\062\004\113\004\061\004\100\004\076\004\101\004\076\004\062}{chapter.2}% 8
\BOOKMARK [0][-]{chapter.3}{\376\377\004\040\004\065\004\060\004\073\004\070\004\067\004\060\004\106\004\070\004\117}{}% 9
\BOOKMARK [1][-]{section.3.1}{\376\377\004\021\004\076\004\072\004\101\004\077\004\073\004\076\004\102\000\040\004\042\004\114\004\116\004\072\004\070}{chapter.3}% 10
\BOOKMARK [1][-]{section.3.2}{\376\377\004\024\004\076\004\073\004\117\000\040\004\062\004\113\004\061\004\100\004\076\004\101\004\076\004\062}{chapter.3}% 11
\BOOKMARK [1][-]{section.3.3}{\376\377\004\042\004\065\004\076\004\100\004\065\004\102\004\070\004\107\004\065\004\101\004\072\004\060\004\117\000\040\004\062\004\065\004\100\004\076\004\117\004\102\004\075\004\076\004\101\004\102\004\114\000\040\004\062\004\113\004\061\004\100\004\076\004\101\004\076\004\062}{chapter.3}% 12
\BOOKMARK [0][-]{chapter.4}{\376\377\004\036\004\061\004\101\004\103\004\066\004\064\004\065\004\075\004\070\004\065}{}% 13
\BOOKMARK [1][-]{section.4.1}{\376\377\004\024\004\076\004\073\004\117\000\040\004\070\000\040\004\102\004\065\004\076\004\100\004\065\004\102\004\070\004\107\004\065\004\101\004\072\004\060\004\117\000\040\004\062\004\065\004\100\004\076\004\117\004\102\004\075\004\076\004\101\004\102\004\114\000\040\004\062\004\113\004\061\004\100\004\076\004\101\004\076\004\062}{chapter.4}% 14
\BOOKMARK [0][-]{chapter.5}{\376\377\004\033\004\070\004\102\004\065\004\100\004\060\004\102\004\103\004\100\004\060}{}% 15
