\relax 
\providecommand\hyper@newdestlabel[2]{}
\@nameuse{bbl@beforestart}
\catcode `"\active 
\providecommand\HyperFirstAtBeginDocument{\AtBeginDocument}
\HyperFirstAtBeginDocument{\ifx\hyper@anchor\@undefined
\global\let\oldcontentsline\contentsline
\gdef\contentsline#1#2#3#4{\oldcontentsline{#1}{#2}{#3}}
\global\let\oldnewlabel\newlabel
\gdef\newlabel#1#2{\newlabelxx{#1}#2}
\gdef\newlabelxx#1#2#3#4#5#6{\oldnewlabel{#1}{{#2}{#3}}}
\AtEndDocument{\ifx\hyper@anchor\@undefined
\let\contentsline\oldcontentsline
\let\newlabel\oldnewlabel
\fi}
\fi}
\global\let\hyper@last\relax 
\gdef\HyperFirstAtBeginDocument#1{#1}
\providecommand\HyField@AuxAddToFields[1]{}
\providecommand\HyField@AuxAddToCoFields[2]{}
\babel@aux{russian}{}
\@writefile{toc}{\contentsline {chapter}{\numberline  {1}Постановка задачи}{3}{chapter.1}\protected@file@percent }
\@writefile{lof}{\runinsectionskip }
\@writefile{lot}{\runinsectionskip }
\@writefile{toc}{\contentsline {chapter}{\numberline  {2}Теория}{5}{chapter.2}\protected@file@percent }
\@writefile{lof}{\runinsectionskip }
\@writefile{lot}{\runinsectionskip }
\@writefile{toc}{\contentsline {section}{\numberline  {2.1}Распределения}{5}{section.2.1}\protected@file@percent }
\@writefile{toc}{\contentsline {section}{\numberline  {2.2}Гистограмма}{5}{section.2.2}\protected@file@percent }
\@writefile{toc}{\contentsline {subsection}{\numberline  {2.2.1}Определение}{5}{subsection.2.2.1}\protected@file@percent }
\@writefile{toc}{\contentsline {subsection}{\numberline  {2.2.2}Графическое определение}{6}{subsection.2.2.2}\protected@file@percent }
\@writefile{toc}{\contentsline {subsection}{\numberline  {2.2.3}Использование}{6}{subsection.2.2.3}\protected@file@percent }
\@writefile{toc}{\contentsline {section}{\numberline  {2.3}Вариационный ряд}{6}{section.2.3}\protected@file@percent }
\@writefile{toc}{\contentsline {section}{\numberline  {2.4}Выборочные числовые характеристики}{7}{section.2.4}\protected@file@percent }
\@writefile{toc}{\contentsline {subsection}{\numberline  {2.4.1}характеристики положения}{7}{subsection.2.4.1}\protected@file@percent }
\@writefile{toc}{\contentsline {subsection}{\numberline  {2.4.2}Характеристики рассеяния}{7}{subsection.2.4.2}\protected@file@percent }
\@writefile{toc}{\contentsline {section}{\numberline  {2.5}Боксплот Тьюки}{8}{section.2.5}\protected@file@percent }
\@writefile{toc}{\contentsline {subsection}{\numberline  {2.5.1}Определение}{8}{subsection.2.5.1}\protected@file@percent }
\@writefile{toc}{\contentsline {subsection}{\numberline  {2.5.2}Описание}{8}{subsection.2.5.2}\protected@file@percent }
\@writefile{toc}{\contentsline {subsection}{\numberline  {2.5.3}Построение}{8}{subsection.2.5.3}\protected@file@percent }
\@writefile{toc}{\contentsline {section}{\numberline  {2.6}Теоретическая вероятность выбросов}{8}{section.2.6}\protected@file@percent }
\@writefile{toc}{\contentsline {section}{\numberline  {2.7}Эмпирическая функция распределения}{9}{section.2.7}\protected@file@percent }
\@writefile{toc}{\contentsline {subsection}{\numberline  {2.7.1}Статистический ряд}{9}{subsection.2.7.1}\protected@file@percent }
\@writefile{lot}{\contentsline {table}{\numberline  {2.1}Статистический ряд}{9}{table.2.1}\protected@file@percent }
\@writefile{toc}{\contentsline {subsection}{\numberline  {2.7.2}Определение}{9}{subsection.2.7.2}\protected@file@percent }
\@writefile{toc}{\contentsline {subsection}{\numberline  {2.7.3}Описание}{10}{subsection.2.7.3}\protected@file@percent }
\@writefile{lot}{\contentsline {table}{\numberline  {2.2}Таблица распределения}{10}{table.2.2}\protected@file@percent }
\@writefile{toc}{\contentsline {section}{\numberline  {2.8}Оценки плотности вероятности}{10}{section.2.8}\protected@file@percent }
\@writefile{toc}{\contentsline {subsection}{\numberline  {2.8.1}Определение}{10}{subsection.2.8.1}\protected@file@percent }
\@writefile{toc}{\contentsline {subsection}{\numberline  {2.8.2}Ядерные оценки}{10}{subsection.2.8.2}\protected@file@percent }
\@writefile{toc}{\contentsline {chapter}{\numberline  {3}Реализация}{12}{chapter.3}\protected@file@percent }
\@writefile{lof}{\runinsectionskip }
\@writefile{lot}{\runinsectionskip }
\@writefile{toc}{\contentsline {section}{\numberline  {3.1}Гистограмма и график плотности распределения}{12}{section.3.1}\protected@file@percent }
\@writefile{lof}{\contentsline {figure}{\numberline  {3.1}Нормальное распределение}{12}{figure.3.1}\protected@file@percent }
\@writefile{lof}{\contentsline {figure}{\numberline  {3.2}Распределение Коши}{12}{figure.3.2}\protected@file@percent }
\@writefile{lof}{\contentsline {figure}{\numberline  {3.3}Распределение Лапласа}{13}{figure.3.3}\protected@file@percent }
\@writefile{lof}{\contentsline {figure}{\numberline  {3.4}Распределение Пуассона}{13}{figure.3.4}\protected@file@percent }
\@writefile{lof}{\contentsline {figure}{\numberline  {3.5}Равномерное распределение}{13}{figure.3.5}\protected@file@percent }
\@writefile{toc}{\contentsline {section}{\numberline  {3.2}Характеристики положения и рассеяния}{14}{section.3.2}\protected@file@percent }
\@writefile{lot}{\contentsline {table}{\numberline  {3.1}Нормальное распределение}{14}{table.3.1}\protected@file@percent }
\@writefile{lot}{\contentsline {table}{\numberline  {3.2}Распределение Коши}{14}{table.3.2}\protected@file@percent }
\@writefile{lot}{\contentsline {table}{\numberline  {3.3}Распределение Лапласа}{15}{table.3.3}\protected@file@percent }
\@writefile{lot}{\contentsline {table}{\numberline  {3.4}Распределение Пуассона}{15}{table.3.4}\protected@file@percent }
\@writefile{lot}{\contentsline {table}{\numberline  {3.5}Равномерное распределение}{16}{table.3.5}\protected@file@percent }
\@writefile{toc}{\contentsline {section}{\numberline  {3.3}Боксплот Тьюки}{16}{section.3.3}\protected@file@percent }
\@writefile{lof}{\contentsline {figure}{\numberline  {3.6}Нормальное распределение}{16}{figure.3.6}\protected@file@percent }
\@writefile{lof}{\contentsline {figure}{\numberline  {3.7}Распределение Коши}{17}{figure.3.7}\protected@file@percent }
\@writefile{lof}{\contentsline {figure}{\numberline  {3.8}Распределение Лапласа}{17}{figure.3.8}\protected@file@percent }
\@writefile{lof}{\contentsline {figure}{\numberline  {3.9}Распределение Пуассона}{18}{figure.3.9}\protected@file@percent }
\@writefile{lof}{\contentsline {figure}{\numberline  {3.10}Равномерное распределение}{18}{figure.3.10}\protected@file@percent }
\@writefile{toc}{\contentsline {section}{\numberline  {3.4}Доля выбросов}{19}{section.3.4}\protected@file@percent }
\@writefile{lot}{\contentsline {table}{\numberline  {3.6}Доля выбросов}{19}{table.3.6}\protected@file@percent }
\@writefile{toc}{\contentsline {section}{\numberline  {3.5}Теоретическая вероятность выбросов}{19}{section.3.5}\protected@file@percent }
\@writefile{lot}{\contentsline {table}{\numberline  {3.7}Теоретическая вероятность выбросов}{19}{table.3.7}\protected@file@percent }
\@writefile{toc}{\contentsline {section}{\numberline  {3.6}Эмпирическая функция распределения}{19}{section.3.6}\protected@file@percent }
\@writefile{lof}{\contentsline {figure}{\numberline  {3.11}Нормальное распределение}{20}{figure.3.11}\protected@file@percent }
\@writefile{lof}{\contentsline {figure}{\numberline  {3.12}Распределение Коши}{20}{figure.3.12}\protected@file@percent }
\@writefile{lof}{\contentsline {figure}{\numberline  {3.13}Распределение Лапласа}{20}{figure.3.13}\protected@file@percent }
\@writefile{lof}{\contentsline {figure}{\numberline  {3.14}Распределение Пуассона}{20}{figure.3.14}\protected@file@percent }
\@writefile{lof}{\contentsline {figure}{\numberline  {3.15}Равномерное распределение}{21}{figure.3.15}\protected@file@percent }
\@writefile{toc}{\contentsline {section}{\numberline  {3.7}Ядерные оценки плотности распределения}{21}{section.3.7}\protected@file@percent }
\@writefile{lof}{\contentsline {figure}{\numberline  {3.16}Нормальное распределение, $n = 20$}{21}{figure.3.16}\protected@file@percent }
\@writefile{lof}{\contentsline {figure}{\numberline  {3.17}Нормальное распределение, $n = 60$}{21}{figure.3.17}\protected@file@percent }
\@writefile{lof}{\contentsline {figure}{\numberline  {3.18}Нормальное распределение, $n = 100$}{22}{figure.3.18}\protected@file@percent }
\@writefile{lof}{\contentsline {figure}{\numberline  {3.19}Распределение Коши, $n = 20$}{22}{figure.3.19}\protected@file@percent }
\@writefile{lof}{\contentsline {figure}{\numberline  {3.20}Распределение Коши, $n = 60$}{22}{figure.3.20}\protected@file@percent }
\@writefile{lof}{\contentsline {figure}{\numberline  {3.21}Распределение Коши, $n = 100$}{22}{figure.3.21}\protected@file@percent }
\@writefile{lof}{\contentsline {figure}{\numberline  {3.22}Распределение Лапласа, $n = 20$}{23}{figure.3.22}\protected@file@percent }
\@writefile{lof}{\contentsline {figure}{\numberline  {3.23}Распределение Лапласа, $n = 60$}{23}{figure.3.23}\protected@file@percent }
\@writefile{lof}{\contentsline {figure}{\numberline  {3.24}Распределение Лапласа, $n = 100$}{23}{figure.3.24}\protected@file@percent }
\@writefile{lof}{\contentsline {figure}{\numberline  {3.25}Распределение Пуассона, $n = 20$}{23}{figure.3.25}\protected@file@percent }
\@writefile{lof}{\contentsline {figure}{\numberline  {3.26}Распределение Пуассона, $n = 60$}{24}{figure.3.26}\protected@file@percent }
\@writefile{lof}{\contentsline {figure}{\numberline  {3.27}Распределение Пуассона, $n = 100$}{24}{figure.3.27}\protected@file@percent }
\@writefile{lof}{\contentsline {figure}{\numberline  {3.28}Равномерное распределение, $n = 20$}{24}{figure.3.28}\protected@file@percent }
\@writefile{lof}{\contentsline {figure}{\numberline  {3.29}Равномерное распределение, $n = 60$}{24}{figure.3.29}\protected@file@percent }
\@writefile{lof}{\contentsline {figure}{\numberline  {3.30}Равномерное распределение, $n = 100$}{25}{figure.3.30}\protected@file@percent }
\@writefile{toc}{\contentsline {chapter}{\numberline  {4}Обсуждение}{26}{chapter.4}\protected@file@percent }
\@writefile{lof}{\runinsectionskip }
\@writefile{lot}{\runinsectionskip }
\@writefile{toc}{\contentsline {section}{\numberline  {4.1}Гистограмма и график плотности распределения}{26}{section.4.1}\protected@file@percent }
\@writefile{toc}{\contentsline {section}{\numberline  {4.2}Характеристики положения и рассеяния}{26}{section.4.2}\protected@file@percent }
\@writefile{toc}{\contentsline {section}{\numberline  {4.3}Доля и теоретическая вероятность выбросов}{26}{section.4.3}\protected@file@percent }
\@writefile{toc}{\contentsline {section}{\numberline  {4.4}Эмпирическая функция и ядерные оценки плотности распределения}{27}{section.4.4}\protected@file@percent }
\@writefile{toc}{\contentsline {chapter}{\numberline  {5}Литература}{28}{chapter.5}\protected@file@percent }
\@writefile{lof}{\runinsectionskip }
\@writefile{lot}{\runinsectionskip }
